traces/sim/add_2byte_from_mem.vcd
$version Generated by VerilatedVcd $end
$timescale 1ps $end
 $scope module TOP $end
  $scope module types $end
   $var wire 16 D# STACK_AW [15:0] $end
   $var wire 16 E# STACK_CW [15:0] $end
   $var wire 16 F# STACK_DW [15:0] $end
   $var wire 16 G# STACK_BW [15:0] $end
   $var wire 16 H# STACK_SP [15:0] $end
   $var wire 16 I# STACK_BP_SKIP_SP [15:0] $end
   $var wire 16 J# STACK_BP [15:0] $end
   $var wire 16 K# STACK_IX [15:0] $end
   $var wire 16 L# STACK_IY [15:0] $end
   $var wire 16 M# STACK_DS1 [15:0] $end
   $var wire 16 N# STACK_PSW [15:0] $end
   $var wire 16 O# STACK_PS [15:0] $end
   $var wire 16 P# STACK_SS [15:0] $end
   $var wire 16 Q# STACK_DS0 [15:0] $end
   $var wire 16 R# STACK_PC [15:0] $end
   $var wire 16 S# STACK_OPERAND [15:0] $end
  $upscope $end
  $scope module V33 $end
   $var wire 1 B" clk $end
   $var wire 1 C" ce_1 $end
   $var wire 1 D" ce_2 $end
   $var wire 1 E" reset $end
   $var wire 1 F" hldrq $end
   $var wire 1 G" n_ready $end
   $var wire 1 H" bs16 $end
   $var wire 1 # hldak $end
   $var wire 1 $ n_buslock $end
   $var wire 1 % n_ube $end
   $var wire 1 & r_w $end
   $var wire 1 ' m_io $end
   $var wire 1 ( busst0 $end
   $var wire 1 ) busst1 $end
   $var wire 1 4# aex $end
   $var wire 1 * n_bcyst $end
   $var wire 1 + n_dstb $end
   $var wire 1 S" intreq $end
   $var wire 1 T" n_nmi $end
   $var wire 1 U" n_cpbusy $end
   $var wire 1 V" n_cperr $end
   $var wire 1 W" cpreq $end
   $var wire 24 , addr [23:0] $end
   $var wire 16 - dout [15:0] $end
   $var wire 16 Z" din [15:0] $end
   $var wire 1 [" turbo $end
   $var wire 16 \" reg_ds0 [15:0] $end
   $var wire 16 ]" reg_ds1 [15:0] $end
   $var wire 16 ^" reg_ss [15:0] $end
   $var wire 16 _" reg_ps [15:0] $end
   $var wire 16 `" reg_aw [15:0] $end
   $var wire 16 a" reg_bw [15:0] $end
   $var wire 16 b" reg_cw [15:0] $end
   $var wire 16 c" reg_dw [15:0] $end
   $var wire 16 d" reg_sp [15:0] $end
   $var wire 16 e" reg_bp [15:0] $end
   $var wire 16 f" reg_ix [15:0] $end
   $var wire 16 g" reg_iy [15:0] $end
   $var wire 16 h" cur_pc [15:0] $end
   $var wire 16 . TA [15:0] $end
   $var wire 16 / TB [15:0] $end
   $var wire 1 i" halt $end
   $scope module flags $end
    $var wire 1 0 V $end
    $var wire 1 1 S $end
    $var wire 1 2 Z $end
    $var wire 1 3 AC $end
    $var wire 1 4 P $end
    $var wire 1 5 CY $end
    $var wire 1 6 MD $end
    $var wire 1 7 DIR $end
    $var wire 1 8 IE $end
    $var wire 1 9 BRK $end
   $upscope $end
   $var wire 16 j" reg_psw [15:0] $end
   $var wire 16 : dp_addr [15:0] $end
   $var wire 16 ; dp_dout [15:0] $end
   $var wire 16 k" dp_din [15:0] $end
   $var wire 2 < dp_sreg [1:0] $end
   $var wire 1 = dp_zero_seg $end
   $var wire 1 > dp_write $end
   $var wire 1 ? dp_wide $end
   $var wire 1 @ dp_io $end
   $var wire 1 A dp_req $end
   $var wire 1 l" dp_ready $end
   $var wire 16 m" next_pc [15:0] $end
   $var wire 1 n" set_pc $end
   $var wire 8 B ipq[0] [7:0] $end
   $var wire 8 C ipq[1] [7:0] $end
   $var wire 8 D ipq[2] [7:0] $end
   $var wire 8 E ipq[3] [7:0] $end
   $var wire 8 F ipq[4] [7:0] $end
   $var wire 8 G ipq[5] [7:0] $end
   $var wire 8 H ipq[6] [7:0] $end
   $var wire 8 I ipq[7] [7:0] $end
   $var wire 4 o" ipq_len [3:0] $end
   $scope module store_decoded $end
    $var wire 16 J pc [15:0] $end
    $var wire 16 K end_pc [15:0] $end
    $var wire 6 L opcode [5:0] $end
    $var wire 2 M opclass [1:0] $end
    $var wire 6 N alu_operation [5:0] $end
    $var wire 4 O source0 [3:0] $end
    $var wire 4 P source1 [3:0] $end
    $var wire 4 Q dest [3:0] $end
    $var wire 1 R mem_read $end
    $var wire 1 S mem_write $end
    $var wire 16 T disp [15:0] $end
    $var wire 32 U imm [31:0] $end
    $var wire 1 V segment_override $end
    $var wire 2 W segment [1:0] $end
    $var wire 1 X buslock $end
    $var wire 3 Y rep [2:0] $end
    $var wire 2 Z mod [1:0] $end
    $var wire 3 [ rm [2:0] $end
    $var wire 3 \ reg0 [2:0] $end
    $var wire 3 ] reg1 [2:0] $end
    $var wire 2 ^ sreg [1:0] $end
    $var wire 4 _ cond [3:0] $end
    $var wire 3 ` shift [2:0] $end
    $var wire 2 a width [1:0] $end
    $var wire 16 b push [15:0] $end
    $var wire 16 c pop [15:0] $end
    $var wire 10 d cycles [9:0] $end
    $var wire 10 e mem_cycles [9:0] $end
   $upscope $end
   $scope module decoded $end
    $var wire 16 p" pc [15:0] $end
    $var wire 16 q" end_pc [15:0] $end
    $var wire 6 r" opcode [5:0] $end
    $var wire 2 s" opclass [1:0] $end
    $var wire 6 t" alu_operation [5:0] $end
    $var wire 4 u" source0 [3:0] $end
    $var wire 4 v" source1 [3:0] $end
    $var wire 4 w" dest [3:0] $end
    $var wire 1 x" mem_read $end
    $var wire 1 y" mem_write $end
    $var wire 16 z" disp [15:0] $end
    $var wire 32 {" imm [31:0] $end
    $var wire 1 |" segment_override $end
    $var wire 2 }" segment [1:0] $end
    $var wire 1 ~" buslock $end
    $var wire 3 !# rep [2:0] $end
    $var wire 2 "# mod [1:0] $end
    $var wire 3 ## rm [2:0] $end
    $var wire 3 $# reg0 [2:0] $end
    $var wire 3 %# reg1 [2:0] $end
    $var wire 2 &# sreg [1:0] $end
    $var wire 4 '# cond [3:0] $end
    $var wire 3 (# shift [2:0] $end
    $var wire 2 )# width [1:0] $end
    $var wire 16 *# push [15:0] $end
    $var wire 16 +# pop [15:0] $end
    $var wire 10 ,# cycles [9:0] $end
    $var wire 10 -# mem_cycles [9:0] $end
   $upscope $end
   $var wire 6 f cur_opcode [5:0] $end
   $var wire 16 g calc_ea__Vstatic__addr [15:0] $end
   $var wire 8 h interrupt_vector [7:0] $end
   $var wire 1 .# bcu_intreq $end
   $var wire 1 i bcu_intack $end
   $var wire 8 j bcu_intvec [7:0] $end
   $var wire 1 k block_prefetch $end
   $var wire 1 l retire_op $end
   $var wire 1 /# next_decode_valid $end
   $scope module next_decode $end
    $var wire 16 m pc [15:0] $end
    $var wire 16 n end_pc [15:0] $end
    $var wire 6 o opcode [5:0] $end
    $var wire 2 p opclass [1:0] $end
    $var wire 6 q alu_operation [5:0] $end
    $var wire 4 r source0 [3:0] $end
    $var wire 4 s source1 [3:0] $end
    $var wire 4 t dest [3:0] $end
    $var wire 1 u mem_read $end
    $var wire 1 v mem_write $end
    $var wire 16 w disp [15:0] $end
    $var wire 32 x imm [31:0] $end
    $var wire 1 y segment_override $end
    $var wire 2 z segment [1:0] $end
    $var wire 1 { buslock $end
    $var wire 3 | rep [2:0] $end
    $var wire 2 } mod [1:0] $end
    $var wire 3 ~ rm [2:0] $end
    $var wire 3 !! reg0 [2:0] $end
    $var wire 3 "! reg1 [2:0] $end
    $var wire 2 #! sreg [1:0] $end
    $var wire 4 $! cond [3:0] $end
    $var wire 3 %! shift [2:0] $end
    $var wire 2 &! width [1:0] $end
    $var wire 16 '! push [15:0] $end
    $var wire 16 (! pop [15:0] $end
    $var wire 10 )! cycles [9:0] $end
    $var wire 10 *! mem_cycles [9:0] $end
   $upscope $end
   $var wire 6 +! alu_operation [5:0] $end
   $var wire 32 ,! alu_result [31:0] $end
   $scope module alu_flags_result $end
    $var wire 1 -! V $end
    $var wire 1 .! S $end
    $var wire 1 /! Z $end
    $var wire 1 0! AC $end
    $var wire 1 1! P $end
    $var wire 1 2! CY $end
    $var wire 1 3! MD $end
    $var wire 1 4! DIR $end
    $var wire 1 5! IE $end
    $var wire 1 6! BRK $end
   $upscope $end
   $var wire 1 7! use_alu_result $end
   $var wire 1 8! alu_wide $end
   $var wire 10 9! alu_cycles [9:0] $end
   $var wire 1 :! div_start $end
   $var wire 1 ;! div_wide $end
   $var wire 1 <! div_signed $end
   $var wire 1 =! div_done $end
   $var wire 1 >! div_overflow $end
   $var wire 1 ?! div_dbz $end
   $var wire 33 @! div_num [32:0] $end
   $var wire 33 B! div_denom [32:0] $end
   $var wire 16 D! div_quot [15:0] $end
   $var wire 16 E! div_rem [15:0] $end
   $var wire 5 0# state [4:0] $end
   $var wire 16 F! calculated_ea [15:0] $end
   $var wire 16 G! op_result [15:0] $end
   $var wire 16 5# branch_new_pc [15:0] $end
   $var wire 16 6# branch_new_ps [15:0] $end
   $var wire 4 H! exec_stage [3:0] $end
   $var wire 16 I! push_list [15:0] $end
   $var wire 16 J! pop_list [15:0] $end
   $var wire 16 K! push_sp_save [15:0] $end
   $var wire 5 L! prepare_nesting_level [4:0] $end
   $var wire 16 M! prepare_sp_save [15:0] $end
   $var wire 7 N! bcd_offset [6:0] $end
   $var wire 5 O! bcd_acc_high [4:0] $end
   $var wire 5 P! bcd_acc_low [4:0] $end
   $var wire 8 Q! bcd_acc [7:0] $end
   $var wire 8 R! bcd_src [7:0] $end
   $var wire 5 S! bcd_result_high [4:0] $end
   $var wire 5 T! bcd_result_low [4:0] $end
   $var wire 1 U! stack_modified_pc $end
   $var wire 1 V! stack_modified_ps $end
   $var wire 10 W! cycles [9:0] $end
   $var wire 10 X! op_cycles [9:0] $end
   $scope module ALU $end
    $var wire 1 B" clk $end
    $var wire 6 +! operation [5:0] $end
    $var wire 16 . ta [15:0] $end
    $var wire 16 / tb [15:0] $end
    $var wire 1 8! wide $end
    $var wire 32 ,! result [31:0] $end
    $var wire 10 9! alu_cycles [9:0] $end
    $scope module flags_in $end
     $var wire 1 0 V $end
     $var wire 1 1 S $end
     $var wire 1 2 Z $end
     $var wire 1 3 AC $end
     $var wire 1 4 P $end
     $var wire 1 5 CY $end
     $var wire 1 6 MD $end
     $var wire 1 7 DIR $end
     $var wire 1 8 IE $end
     $var wire 1 9 BRK $end
    $upscope $end
    $scope module flags $end
     $var wire 1 -! V $end
     $var wire 1 .! S $end
     $var wire 1 /! Z $end
     $var wire 1 0! AC $end
     $var wire 1 1! P $end
     $var wire 1 2! CY $end
     $var wire 1 3! MD $end
     $var wire 1 4! DIR $end
     $var wire 1 5! IE $end
     $var wire 1 6! BRK $end
    $upscope $end
    $scope module unnamedblk1 $end
     $var wire 1 Y! calc_parity $end
     $var wire 1 Z! calc_sign $end
     $var wire 1 [! calc_zero $end
     $scope module fcalc $end
      $var wire 1 7# V $end
      $var wire 1 8# S $end
      $var wire 1 9# Z $end
      $var wire 1 :# AC $end
      $var wire 1 ;# P $end
      $var wire 1 <# CY $end
      $var wire 1 =# MD $end
      $var wire 1 ># DIR $end
      $var wire 1 ?# IE $end
      $var wire 1 @# BRK $end
     $upscope $end
     $var wire 16 \! res [15:0] $end
     $var wire 17 ]! temp17 [16:0] $end
     $var wire 17 ^! temp17_2 [16:0] $end
     $var wire 9 _! temp9 [8:0] $end
     $var wire 32 `! result32 [31:0] $end
     $var wire 1 a! use_result32 $end
     $var wire 18 b! sh18 [17:0] $end
     $var wire 34 c! sh34 [33:0] $end
     $var wire 6 e! sz [5:0] $end
     $var wire 6 f! sz_inv [5:0] $end
     $var wire 16 g! bit_shift_mask [15:0] $end
    $upscope $end
   $upscope $end
   $scope module BCU $end
    $var wire 1 B" clk $end
    $var wire 1 C" ce_1 $end
    $var wire 1 D" ce_2 $end
    $var wire 1 E" reset $end
    $var wire 1 F" hldrq $end
    $var wire 1 G" n_ready $end
    $var wire 1 H" bs16 $end
    $var wire 1 # hldak $end
    $var wire 1 $ n_buslock $end
    $var wire 1 % n_ube $end
    $var wire 1 & r_w $end
    $var wire 1 ' m_io $end
    $var wire 1 ( busst0 $end
    $var wire 1 ) busst1 $end
    $var wire 1 4# aex $end
    $var wire 1 * n_bcyst $end
    $var wire 1 + n_dstb $end
    $var wire 24 , addr [23:0] $end
    $var wire 16 - dout [15:0] $end
    $var wire 16 Z" din [15:0] $end
    $var wire 16 _" reg_ps [15:0] $end
    $var wire 16 ^" reg_ss [15:0] $end
    $var wire 16 \" reg_ds0 [15:0] $end
    $var wire 16 ]" reg_ds1 [15:0] $end
    $var wire 1 n" pfp_set $end
    $var wire 1 k block_prefetch $end
    $var wire 16 1# ipq_head [15:0] $end
    $var wire 8 B ipq[0] [7:0] $end
    $var wire 8 C ipq[1] [7:0] $end
    $var wire 8 D ipq[2] [7:0] $end
    $var wire 8 E ipq[3] [7:0] $end
    $var wire 8 F ipq[4] [7:0] $end
    $var wire 8 G ipq[5] [7:0] $end
    $var wire 8 H ipq[6] [7:0] $end
    $var wire 8 I ipq[7] [7:0] $end
    $var wire 4 o" ipq_len [3:0] $end
    $var wire 16 : dp_addr [15:0] $end
    $var wire 16 ; dp_dout [15:0] $end
    $var wire 16 k" dp_din [15:0] $end
    $var wire 2 < dp_sreg [1:0] $end
    $var wire 1 > dp_write $end
    $var wire 1 ? dp_wide $end
    $var wire 1 @ dp_io $end
    $var wire 1 A dp_req $end
    $var wire 1 = dp_zero_seg $end
    $var wire 1 l" dp_ready $end
    $var wire 1 ~" buslock_prefix $end
    $var wire 1 h! implementation_fault $end
    $var wire 1 .# intreq $end
    $var wire 1 i intack $end
    $var wire 8 j intvec [7:0] $end
    $var wire 20 i! physical_addr__Vstatic__addr [19:0] $end
    $var wire 2 j! t_state [1:0] $end
    $var wire 3 k! cycle_type [2:0] $end
    $var wire 1 l! dp_busy $end
    $var wire 1 m! dp_final_cycle $end
    $var wire 1 n! dp_req2 $end
    $var wire 16 o! dp_din_buf [15:0] $end
    $var wire 16 p! reg_pfp [15:0] $end
    $var wire 1 q! discard_ipq_fetch $end
    $var wire 1 2# dp_bus_ready $end
    $var wire 32 r! intack_idles [31:0] $end
    $var wire 4 s! prefetch_delay [3:0] $end
    $scope module unnamedblk1 $end
     $var wire 16 t! cur_pfp [15:0] $end
     $scope module unnamedblk2 $end
      $var wire 1 u! do_prefetch $end
     $upscope $end
    $upscope $end
   $upscope $end
   $scope module divider $end
    $var wire 1 B" clk $end
    $var wire 1 3# ce $end
    $var wire 1 E" reset $end
    $var wire 1 :! start $end
    $var wire 1 ;! wide $end
    $var wire 1 =! done $end
    $var wire 1 >! overflow $end
    $var wire 1 ?! dbz $end
    $var wire 33 @! a [32:0] $end
    $var wire 33 B! b [32:0] $end
    $var wire 16 D! quot [15:0] $end
    $var wire 16 E! rem [15:0] $end
    $var wire 1 v! busy $end
    $var wire 32 w! b1 [31:0] $end
    $var wire 32 x! quo [31:0] $end
    $var wire 32 y! quo_next [31:0] $end
    $var wire 33 z! acc [32:0] $end
    $var wire 33 |! acc_next [32:0] $end
    $var wire 32 ~! i [31:0] $end
   $upscope $end
   $scope module handle_branch__Vstatic__unnamedblk1 $end
    $var wire 1 !" cond $end
   $upscope $end
   $scope module handle_branch__Vstatic__unnamedblk2 $end
    $var wire 1 "" cond $end
   $upscope $end
   $scope module nec_decode $end
    $var wire 1 B" clk $end
    $var wire 1 C" ce_1 $end
    $var wire 1 D" ce_2 $end
    $var wire 16 h" pc [15:0] $end
    $var wire 16 m" new_pc [15:0] $end
    $var wire 1 n" set_pc $end
    $var wire 1 l retire_op $end
    $var wire 4 o" ipq_len [3:0] $end
    $var wire 8 B ipq[0] [7:0] $end
    $var wire 8 C ipq[1] [7:0] $end
    $var wire 8 D ipq[2] [7:0] $end
    $var wire 8 E ipq[3] [7:0] $end
    $var wire 8 F ipq[4] [7:0] $end
    $var wire 8 G ipq[5] [7:0] $end
    $var wire 8 H ipq[6] [7:0] $end
    $var wire 8 I ipq[7] [7:0] $end
    $var wire 1 /# valid $end
    $scope module decoded $end
     $var wire 16 m pc [15:0] $end
     $var wire 16 n end_pc [15:0] $end
     $var wire 6 o opcode [5:0] $end
     $var wire 2 p opclass [1:0] $end
     $var wire 6 q alu_operation [5:0] $end
     $var wire 4 r source0 [3:0] $end
     $var wire 4 s source1 [3:0] $end
     $var wire 4 t dest [3:0] $end
     $var wire 1 u mem_read $end
     $var wire 1 v mem_write $end
     $var wire 16 w disp [15:0] $end
     $var wire 32 x imm [31:0] $end
     $var wire 1 y segment_override $end
     $var wire 2 z segment [1:0] $end
     $var wire 1 { buslock $end
     $var wire 3 | rep [2:0] $end
     $var wire 2 } mod [1:0] $end
     $var wire 3 ~ rm [2:0] $end
     $var wire 3 !! reg0 [2:0] $end
     $var wire 3 "! reg1 [2:0] $end
     $var wire 2 #! sreg [1:0] $end
     $var wire 4 $! cond [3:0] $end
     $var wire 3 %! shift [2:0] $end
     $var wire 2 &! width [1:0] $end
     $var wire 16 '! push [15:0] $end
     $var wire 16 (! pop [15:0] $end
     $var wire 10 )! cycles [9:0] $end
     $var wire 10 *! mem_cycles [9:0] $end
    $upscope $end
    $var wire 6 #" state [5:0] $end
    $scope module d $end
     $var wire 16 m pc [15:0] $end
     $var wire 16 n end_pc [15:0] $end
     $var wire 6 o opcode [5:0] $end
     $var wire 2 p opclass [1:0] $end
     $var wire 6 q alu_operation [5:0] $end
     $var wire 4 r source0 [3:0] $end
     $var wire 4 s source1 [3:0] $end
     $var wire 4 t dest [3:0] $end
     $var wire 1 u mem_read $end
     $var wire 1 v mem_write $end
     $var wire 16 w disp [15:0] $end
     $var wire 32 x imm [31:0] $end
     $var wire 1 y segment_override $end
     $var wire 2 z segment [1:0] $end
     $var wire 1 { buslock $end
     $var wire 3 | rep [2:0] $end
     $var wire 2 } mod [1:0] $end
     $var wire 3 ~ rm [2:0] $end
     $var wire 3 !! reg0 [2:0] $end
     $var wire 3 "! reg1 [2:0] $end
     $var wire 2 #! sreg [1:0] $end
     $var wire 4 $! cond [3:0] $end
     $var wire 3 %! shift [2:0] $end
     $var wire 2 &! width [1:0] $end
     $var wire 16 '! push [15:0] $end
     $var wire 16 (! pop [15:0] $end
     $var wire 10 )! cycles [9:0] $end
     $var wire 10 *! mem_cycles [9:0] $end
    $upscope $end
    $var wire 2 A# calc_seg__Vstatic__seg [1:0] $end
    $var wire 3 $" disp_read [2:0] $end
    $var wire 3 %" imm_read [2:0] $end
    $var wire 3 &" disp_size [2:0] $end
    $var wire 3 '" imm_size [2:0] $end
    $var wire 1 (" decode_valid $end
    $var wire 1 )" decode_ready $end
    $scope module unnamedblk1 $end
     $var wire 4 *" avail [3:0] $end
     $var wire 8 +" q [7:0] $end
    $upscope $end
   $upscope $end
   $scope module unnamedblk3 $end
    $var wire 16 B# addr [15:0] $end
    $var wire 32 ," result32 [31:0] $end
    $var wire 16 -" temp [15:0] $end
    $var wire 16 C# src [15:0] $end
    $var wire 8 ." temp8 [7:0] $end
    $var wire 10 /" delay [9:0] $end
    $scope module unnamedblk12 $end
     $var wire 16 0" list [15:0] $end
     $var wire 32 1" pop_idx [31:0] $end
     $var wire 1 2" skip_sp $end
     $var wire 1 3" mem_write $end
     $scope module unnamedblk13 $end
      $var wire 32 4" i [31:0] $end
     $upscope $end
    $upscope $end
    $scope module unnamedblk14 $end
     $var wire 16 5" push_data [15:0] $end
     $var wire 16 6" list [15:0] $end
     $var wire 32 7" push_idx [31:0] $end
     $scope module unnamedblk15 $end
      $var wire 32 8" i [31:0] $end
     $upscope $end
    $upscope $end
    $scope module unnamedblk4 $end
     $var wire 1 9" working $end
     $var wire 1 :" exception $end
     $scope module unnamedblk10 $end
      $var wire 16 ;" operand [15:0] $end
     $upscope $end
     $scope module unnamedblk11 $end
      $var wire 1 <" need_delay $end
     $upscope $end
     $scope module unnamedblk5 $end
      $var wire 1 =" do_work $end
     $upscope $end
     $scope module unnamedblk6 $end
      $var wire 1 >" do_work $end
     $upscope $end
     $scope module unnamedblk7 $end
      $var wire 1 ?" do_work $end
     $upscope $end
     $scope module unnamedblk8 $end
      $var wire 1 @" do_work $end
     $upscope $end
     $scope module unnamedblk9 $end
      $var wire 1 A" do_work $end
     $upscope $end
    $upscope $end
   $upscope $end
  $upscope $end
  $var wire 1 B" clk $end
  $var wire 1 C" ce_1 $end
  $var wire 1 D" ce_2 $end
  $var wire 1 E" reset $end
  $var wire 1 F" hldrq $end
  $var wire 1 G" n_ready $end
  $var wire 1 H" bs16 $end
  $var wire 1 I" hldak $end
  $var wire 1 J" n_buslock $end
  $var wire 1 K" n_ube $end
  $var wire 1 L" r_w $end
  $var wire 1 M" m_io $end
  $var wire 1 N" busst0 $end
  $var wire 1 O" busst1 $end
  $var wire 1 P" aex $end
  $var wire 1 Q" n_bcyst $end
  $var wire 1 R" n_dstb $end
  $var wire 1 S" intreq $end
  $var wire 1 T" n_nmi $end
  $var wire 1 U" n_cpbusy $end
  $var wire 1 V" n_cperr $end
  $var wire 1 W" cpreq $end
  $var wire 24 X" addr [23:0] $end
  $var wire 16 Y" dout [15:0] $end
  $var wire 16 Z" din [15:0] $end
  $var wire 1 [" turbo $end
 $upscope $end
$enddefinitions $end


#1
0#
0$
0%
1&
0'
0(
0)
0*
0+
b000000000000000000000000 ,
b0000000000000000 -
b0000000000000000 .
b0000000000000000 /
00
01
02
03
04
05
06
07
08
09
b0000000000000000 :
b0000000000000000 ;
b00 <
0=
0>
0?
0@
0A
b00000000 B
b00000000 C
b00000000 D
b00000000 E
b00000000 F
b00000000 G
b00000000 H
b00000000 I
b0000000000000000 J
b0000000000000000 K
b000000 L
b00 M
b000000 N
b0000 O
b0000 P
b0000 Q
0R
0S
b0000000000000000 T
b00000000000000000000000000000000 U
0V
b00 W
0X
b000 Y
b00 Z
b000 [
b000 \
b000 ]
b00 ^
b0000 _
b000 `
b00 a
b0000000000000000 b
b0000000000000000 c
b0000000000 d
b0000000000 e
b000000 f
b0000000000000000 g
b00000000 h
0i
b00000000 j
0k
0l
b0000000000000000 m
b0000000000000000 n
b000000 o
b00 p
b000000 q
b0000 r
b0000 s
b0000 t
0u
0v
b0000000000000000 w
b00000000000000000000000000000000 x
0y
b00 z
0{
b000 |
b00 }
b000 ~
b000 !!
b000 "!
b00 #!
b0000 $!
b000 %!
b00 &!
b0000000000000000 '!
b0000000000000000 (!
b0000000000 )!
b0000000000 *!
b000000 +!
b00000000000000000000000000000000 ,!
0-!
0.!
1/!
00!
11!
02!
03!
04!
05!
06!
07!
08!
b0000000000 9!
0:!
0;!
0<!
0=!
0>!
0?!
b000000000000000000000000000000000 @!
b000000000000000000000000000000000 B!
b0000000000000000 D!
b0000000000000000 E!
b0000000000000000 F!
b0000000000000000 G!
b0000 H!
b0000000000000000 I!
b0000000000000000 J!
b0000000000000000 K!
b00000 L!
b0000000000000000 M!
b0000000 N!
b00000 O!
b00000 P!
b00000000 Q!
b00000000 R!
b00000 S!
b00000 T!
0U!
0V!
b0000000000 W!
b0000000000 X!
1Y!
1Z!
1[!
b0000000000000000 \!
b00000000000000000 ]!
b00000000000000000 ^!
b000000000 _!
b00000000000000000000000000000000 `!
0a!
b000000000000000000 b!
b0000000000000000000000000000000000 c!
b000000 e!
b000000 f!
b0000000000000001 g!
0h!
b00000000000000000000 i!
b00 j!
b000 k!
0l!
0m!
0n!
b0000000000000000 o!
b0000000000000000 p!
0q!
b00000000000000000000000000000000 r!
b0000 s!
b0000000000000000 t!
0u!
0v!
b00000000000000000000000000000000 w!
b00000000000000000000000000000000 x!
b00000000000000000000000000000001 y!
b000000000000000000000000000000000 z!
b000000000000000000000000000000000 |!
b00000000000000000000000000000000 ~!
0!"
0""
b000000 #"
b000 $"
b000 %"
b000 &"
b000 '"
0("
0)"
b0000 *"
b00000000 +"
b00000000000000000000000000000000 ,"
b0000000000000000 -"
b00000000 ."
b0000000000 /"
b0000000000000000 0"
b00000000000000000000000000000000 1"
02"
03"
b00000000000000000000000000000000 4"
b0000000000000000 5"
b0000000000000000 6"
b00000000000000000000000000000000 7"
b00000000000000000000000000000000 8"
09"
0:"
b0000000000000000 ;"
0<"
0="
0>"
0?"
0@"
0A"
0B"
0C"
1D"
1E"
0F"
0G"
0H"
0I"
0J"
0K"
1L"
0M"
0N"
0O"
0P"
0Q"
0R"
0S"
0T"
0U"
0V"
0W"
b000000000000000000000000 X"
b0000000000000000 Y"
b0000000000000000 Z"
0["
b0000000000000000 \"
b0000000000000000 ]"
b0000000000000000 ^"
b0000000000000000 _"
b0000000000000000 `"
b0000000000000000 a"
b0000000000000000 b"
b0000000000000000 c"
b0000000000000000 d"
b0000000000000000 e"
b0000000000000000 f"
b0000000000000000 g"
b0000000000000000 h"
0i"
b0111000000000010 j"
b0000000000000000 k"
1l"
b0000000000000000 m"
0n"
b0000 o"
b0000000000000000 p"
b0000000000000000 q"
b000000 r"
b00 s"
b000000 t"
b0000 u"
b0000 v"
b0000 w"
0x"
0y"
b0000000000000000 z"
b00000000000000000000000000000000 {"
0|"
b00 }"
0~"
b000 !#
b00 "#
b000 ##
b000 $#
b000 %#
b00 &#
b0000 '#
b000 (#
b00 )#
b0000000000000000 *#
b0000000000000000 +#
b0000000000 ,#
b0000000000 -#
0.#
0/#
b00000 0#
b0000000000000000 1#
02#
13#
04#
b0000000000000000 5#
b0000000000000000 6#
07#
08#
09#
0:#
0;#
0<#
0=#
0>#
0?#
0@#
b00 A#
b0000000000000000 B#
b0000000000000000 C#
b0000000000000001 D#
b0000000000000010 E#
b0000000000000100 F#
b0000000000001000 G#
b0000000000010000 H#
b0000000000100000 I#
b0000000001000000 J#
b0000000010000000 K#
b0000000100000000 L#
b0000001000000000 M#
b0000010000000000 N#
b0000100000000000 O#
b0001000000000000 P#
b0010000000000000 Q#
b0100000000000000 R#
b1000000000000000 S#
#2
1'
1*
1+
16
13!
b10 j!
b101 k!
b1111111111111111 o!
1B"
1C"
0D"
1M"
1Q"
1R"
b1111111111111111 _"
b1111000000000010 j"
1n"
#3
0B"
b0000101110100101 Z"
b0000101110100101 k"
#4
b11 p
b100100 q
b11 z
b11 }
1B"
0C"
1D"
#5
0B"
#6
1B"
1C"
0D"
#7
0B"
#8
1B"
0C"
1D"
#9
0B"
#10
1B"
1C"
0D"
#11
0B"
#12
1B"
0C"
1D"
#13
0B"
#14
1B"
1C"
0D"
#15
0B"
#16
1B"
0C"
1D"
#17
0B"
#18
1B"
1C"
0D"
#19
0B"
#20
1B"
0C"
1D"
#21
0B"
0E"
#22
1q!
1B"
1C"
0D"
0n"
#23
0B"
#24
1$
0*
b000011111111111111110000 ,
b11111111111111110000 i!
b00 j!
0q!
b00000000000000000000000000000001 r!
b0001 s!
1u!
1B"
0C"
1D"
1J"
0Q"
b000011111111111111110000 X"
#25
0B"
b0000000011101010 Z"
b0000000011101010 k"
#26
0+
1B"
1C"
0D"
0R"
#27
0B"
#28
1*
b01 j!
1B"
0C"
1D"
1Q"
#29
0B"
#30
b11101010 B
b10 j!
1m!
b0000000000000010 p!
1B"
1C"
0D"
b0010 o"
#31
0B"
#32
0*
1+
b000011111111111111110010 ,
b11111111111111110010 i!
b00 j!
b00000000000000000000000000000010 r!
b0000000000000010 t!
b0010 *"
b11101010 +"
1B"
0C"
1D"
0Q"
1R"
b000011111111111111110010 X"
#33
0B"
b0000000000000100 Z"
b0000000000000100 k"
#34
0+
b0000000000000001 n
b001101 o
b10 p
b0010 r
b10 &!
b000001 #"
b100 '"
1B"
1C"
0D"
0R"
b0000000000000001 h"
b0001 o"
b0000000000000001 1#
#35
0B"
#36
1*
b01 j!
b0001 *"
b00000000 +"
1B"
0C"
1D"
1Q"
#37
0B"
#38
b00000100 D
b10 j!
b0000000000000100 p!
1("
1B"
1C"
0D"
b0011 o"
#39
0B"
#40
0*
1+
b000011111111111111110100 ,
b11111111111111110100 i!
b00 j!
b00000000000000000000000000000011 r!
b0000000000000100 t!
b0011 *"
1B"
0C"
1D"
0Q"
1R"
b000011111111111111110100 X"
#41
0B"
b0000000000000000 Z"
b0000000000000000 k"
#42
0+
1B"
1C"
0D"
0R"
#43
0B"
#44
1*
b01 j!
1B"
0C"
1D"
1Q"
#45
0B"
#46
b10 j!
b0000000000000110 p!
1B"
1C"
0D"
b0101 o"
#47
0B"
#48
0*
1+
b000011111111111111110110 ,
b11111111111111110110 i!
b00 j!
b00000000000000000000000000000100 r!
b0000000000000110 t!
b0101 *"
1B"
0C"
1D"
0Q"
1R"
b000011111111111111110110 X"
#49
0B"
#50
0+
b0000000000000101 n
b0000010000000000 w
b00000000000000000000010000000000 x
b100 %"
1)"
1B"
1C"
0D"
0R"
b0000000000000101 h"
b0001 o"
1/#
b0000000000000101 1#
#51
0B"
#52
1*
b01 j!
b0001 *"
1B"
0C"
1D"
1Q"
#53
0B"
#54
b0000010000000000 .
b1111111111111111 /
b001101 f
1l
b00000000000000000000000011111111 ,!
1.!
0/!
12!
b0000010000000000 G!
b0000001111111111 \!
b01111111111111111 ]!
b10000001111111111 ^!
b0000000010000000 g!
b10 j!
b0000000000001000 p!
1B"
1C"
0D"
b0000000000000000 _"
b0000010000000000 m"
1n"
b0000 o"
b0000000000000101 q"
b001101 r"
b10 s"
b100100 t"
b0010 u"
b0000010000000000 z"
b00000000000000000000010000000000 {"
b11 }"
b11 "#
b10 )#
0/#
b0000010000000000 1#
#55
0B"
#56
0*
1+
b000000000000010000000000 ,
b000000 o
b11 p
b0000 r
b00000000010000000000 i!
b00 j!
b0000010000000000 p!
b00000000000000000000000000000101 r!
b0000010000000000 t!
b000000 #"
b000 %"
b000 '"
0("
0)"
b0000 *"
1B"
0C"
1D"
0Q"
1R"
b000000000000010000000000 X"
b0000010000000000 h"
0n"
#57
0B"
b1011100011111010 Z"
b1011100011111010 k"
#58
0+
0l
b11101010 +"
1B"
1C"
0D"
0R"
#59
0B"
