traces/sim/misc_timing.vcd
$version Generated by VerilatedVcd $end
$timescale 1ps $end
 $scope module TOP $end
  $scope module types $end
   $var wire 16 G# STACK_AW [15:0] $end
   $var wire 16 H# STACK_CW [15:0] $end
   $var wire 16 I# STACK_DW [15:0] $end
   $var wire 16 J# STACK_BW [15:0] $end
   $var wire 16 K# STACK_SP [15:0] $end
   $var wire 16 L# STACK_SKIP_SP [15:0] $end
   $var wire 16 M# STACK_BP [15:0] $end
   $var wire 16 N# STACK_IX [15:0] $end
   $var wire 16 O# STACK_IY [15:0] $end
   $var wire 16 P# STACK_DS1 [15:0] $end
   $var wire 16 Q# STACK_PSW [15:0] $end
   $var wire 16 R# STACK_PS [15:0] $end
   $var wire 16 S# STACK_SS [15:0] $end
   $var wire 16 T# STACK_DS0 [15:0] $end
   $var wire 16 U# STACK_PC [15:0] $end
   $var wire 16 V# STACK_OPERAND [15:0] $end
  $upscope $end
  $scope module V33 $end
   $var wire 1 G" clk $end
   $var wire 1 H" ce_1 $end
   $var wire 1 I" ce_2 $end
   $var wire 1 J" reset $end
   $var wire 1 K" hldrq $end
   $var wire 1 L" n_ready $end
   $var wire 1 M" bs16 $end
   $var wire 1 ( hldak $end
   $var wire 1 ) n_buslock $end
   $var wire 1 * n_ube $end
   $var wire 1 + r_w $end
   $var wire 1 , m_io $end
   $var wire 1 - busst0 $end
   $var wire 1 . busst1 $end
   $var wire 1 5# aex $end
   $var wire 1 / n_bcyst $end
   $var wire 1 0 n_dstb $end
   $var wire 1 X" intreq $end
   $var wire 1 Y" n_nmi $end
   $var wire 1 Z" n_cpbusy $end
   $var wire 1 [" n_cperr $end
   $var wire 1 \" cpreq $end
   $var wire 24 1 addr [23:0] $end
   $var wire 16 2 dout [15:0] $end
   $var wire 16 _" din [15:0] $end
   $var wire 1 `" turbo $end
   $var wire 16 a" reg_ds0 [15:0] $end
   $var wire 16 b" reg_ds1 [15:0] $end
   $var wire 16 c" reg_ss [15:0] $end
   $var wire 16 d" reg_ps [15:0] $end
   $var wire 16 e" reg_aw [15:0] $end
   $var wire 16 f" reg_bw [15:0] $end
   $var wire 16 g" reg_cw [15:0] $end
   $var wire 16 h" reg_dw [15:0] $end
   $var wire 16 i" reg_sp [15:0] $end
   $var wire 16 j" reg_bp [15:0] $end
   $var wire 16 k" reg_ix [15:0] $end
   $var wire 16 l" reg_iy [15:0] $end
   $var wire 16 m" cur_pc [15:0] $end
   $var wire 16 3 TA [15:0] $end
   $var wire 16 4 TB [15:0] $end
   $var wire 1 n" halt $end
   $scope module flags $end
    $var wire 1 5 V $end
    $var wire 1 6 S $end
    $var wire 1 7 Z $end
    $var wire 1 8 AC $end
    $var wire 1 9 P $end
    $var wire 1 : CY $end
    $var wire 1 ; MD $end
    $var wire 1 < DIR $end
    $var wire 1 = IE $end
    $var wire 1 > BRK $end
   $upscope $end
   $var wire 16 o" reg_psw [15:0] $end
   $var wire 16 ? dp_addr [15:0] $end
   $var wire 16 @ dp_dout [15:0] $end
   $var wire 16 # dp_din [15:0] $end
   $var wire 2 A dp_sreg [1:0] $end
   $var wire 1 B dp_zero_seg $end
   $var wire 1 C dp_write $end
   $var wire 1 D dp_wide $end
   $var wire 1 E dp_io $end
   $var wire 1 F dp_req $end
   $var wire 1 $ dp_ready $end
   $var wire 16 p" next_pc [15:0] $end
   $var wire 1 q" set_pc $end
   $var wire 8 G ipq[0] [7:0] $end
   $var wire 8 H ipq[1] [7:0] $end
   $var wire 8 I ipq[2] [7:0] $end
   $var wire 8 J ipq[3] [7:0] $end
   $var wire 8 K ipq[4] [7:0] $end
   $var wire 8 L ipq[5] [7:0] $end
   $var wire 8 M ipq[6] [7:0] $end
   $var wire 8 N ipq[7] [7:0] $end
   $var wire 4 % ipq_len [3:0] $end
   $scope module decoded $end
    $var wire 16 r" pc [15:0] $end
    $var wire 16 s" end_pc [15:0] $end
    $var wire 6 t" opcode [5:0] $end
    $var wire 2 u" opclass [1:0] $end
    $var wire 5 v" alu_operation [4:0] $end
    $var wire 4 w" source0 [3:0] $end
    $var wire 4 x" source1 [3:0] $end
    $var wire 4 y" dest [3:0] $end
    $var wire 1 z" mem_read $end
    $var wire 1 {" mem_write $end
    $var wire 1 |" io $end
    $var wire 3 }" disp_size [2:0] $end
    $var wire 16 ~" disp [15:0] $end
    $var wire 32 !# imm [31:0] $end
    $var wire 1 "# segment_override $end
    $var wire 2 ## segment [1:0] $end
    $var wire 1 $# buslock $end
    $var wire 3 %# rep [2:0] $end
    $var wire 2 &# mod [1:0] $end
    $var wire 3 '# rm [2:0] $end
    $var wire 3 (# reg0 [2:0] $end
    $var wire 3 )# reg1 [2:0] $end
    $var wire 2 *# sreg [1:0] $end
    $var wire 4 +# cond [3:0] $end
    $var wire 3 ,# shift [2:0] $end
    $var wire 2 -# width [1:0] $end
    $var wire 16 .# push [15:0] $end
    $var wire 16 /# pop [15:0] $end
   $upscope $end
   $var wire 6 O cur_opcode [5:0] $end
   $var wire 16 P calc_ea__Vstatic__addr [15:0] $end
   $var wire 1 Q shifter__Vstatic__calc_flags $end
   $var wire 16 R shifter__Vstatic__res [15:0] $end
   $var wire 1 S shifter__Vstatic__V $end
   $var wire 8 T interrupt_vector [7:0] $end
   $var wire 1 0# bcu_intreq $end
   $var wire 1 U bcu_intack $end
   $var wire 8 V bcu_intvec [7:0] $end
   $var wire 1 6# block_prefetch $end
   $var wire 1 1# retire_op $end
   $var wire 1 & next_decode_valid $end
   $scope module next_decode $end
    $var wire 16 W pc [15:0] $end
    $var wire 16 X end_pc [15:0] $end
    $var wire 6 Y opcode [5:0] $end
    $var wire 2 Z opclass [1:0] $end
    $var wire 5 [ alu_operation [4:0] $end
    $var wire 4 \ source0 [3:0] $end
    $var wire 4 ] source1 [3:0] $end
    $var wire 4 ^ dest [3:0] $end
    $var wire 1 _ mem_read $end
    $var wire 1 ` mem_write $end
    $var wire 1 a io $end
    $var wire 3 b disp_size [2:0] $end
    $var wire 16 c disp [15:0] $end
    $var wire 32 d imm [31:0] $end
    $var wire 1 e segment_override $end
    $var wire 2 f segment [1:0] $end
    $var wire 1 g buslock $end
    $var wire 3 h rep [2:0] $end
    $var wire 2 i mod [1:0] $end
    $var wire 3 j rm [2:0] $end
    $var wire 3 k reg0 [2:0] $end
    $var wire 3 l reg1 [2:0] $end
    $var wire 2 m sreg [1:0] $end
    $var wire 4 n cond [3:0] $end
    $var wire 3 o shift [2:0] $end
    $var wire 2 p width [1:0] $end
    $var wire 16 q push [15:0] $end
    $var wire 16 r pop [15:0] $end
   $upscope $end
   $var wire 5 s alu_operation [4:0] $end
   $var wire 16 t alu_result [15:0] $end
   $scope module alu_flags_result $end
    $var wire 1 u V $end
    $var wire 1 v S $end
    $var wire 1 w Z $end
    $var wire 1 x AC $end
    $var wire 1 y P $end
    $var wire 1 z CY $end
    $var wire 1 { MD $end
    $var wire 1 | DIR $end
    $var wire 1 } IE $end
    $var wire 1 ~ BRK $end
   $upscope $end
   $var wire 1 !! use_alu_result $end
   $var wire 1 "! alu_wide $end
   $var wire 10 #! alu_delay [9:0] $end
   $var wire 1 $! div_start $end
   $var wire 1 %! div_wide $end
   $var wire 1 &! div_signed $end
   $var wire 1 '! div_done $end
   $var wire 1 (! div_overflow $end
   $var wire 1 )! div_dbz $end
   $var wire 33 *! div_num [32:0] $end
   $var wire 33 ,! div_denom [32:0] $end
   $var wire 16 .! div_quot [15:0] $end
   $var wire 16 /! div_rem [15:0] $end
   $var wire 5 2# state [4:0] $end
   $var wire 1 0! int_processing $end
   $var wire 16 1! calculated_ea [15:0] $end
   $var wire 16 2! op_result [15:0] $end
   $var wire 16 3! op_result_high [15:0] $end
   $var wire 16 7# branch_new_pc [15:0] $end
   $var wire 16 8# branch_new_ps [15:0] $end
   $var wire 4 4! exec_stage [3:0] $end
   $var wire 8 5! shift_count [7:0] $end
   $var wire 16 6! push_list [15:0] $end
   $var wire 16 7! pop_list [15:0] $end
   $var wire 16 8! push_sp_save [15:0] $end
   $var wire 1 9! pop_store $end
   $var wire 5 :! prepare_nesting_level [4:0] $end
   $var wire 16 ;! prepare_sp_save [15:0] $end
   $var wire 7 <! bcd_offset [6:0] $end
   $var wire 5 =! bcd_acc_high [4:0] $end
   $var wire 5 >! bcd_acc_low [4:0] $end
   $var wire 8 ?! bcd_acc [7:0] $end
   $var wire 8 @! bcd_src [7:0] $end
   $var wire 5 A! bcd_result_high [4:0] $end
   $var wire 5 B! bcd_result_low [4:0] $end
   $var wire 1 C! stack_modified_pc $end
   $var wire 1 D! stack_modified_ps $end
   $var wire 10 E! cycles [9:0] $end
   $var wire 10 F! op_delay [9:0] $end
   $var wire 10 G! exec_delay [9:0] $end
   $var wire 16 H! bitfield_addr [15:0] $end
   $var wire 16 I! bitfield_mask [15:0] $end
   $var wire 16 J! bitfield_out [15:0] $end
   $var wire 2 K! bitfield_width [1:0] $end
   $var wire 3 L! bitfield_shift [2:0] $end
   $scope module ALU $end
    $var wire 1 G" clk $end
    $var wire 5 s operation [4:0] $end
    $var wire 16 3 ta [15:0] $end
    $var wire 16 4 tb [15:0] $end
    $var wire 1 "! wide $end
    $var wire 16 t result [15:0] $end
    $var wire 10 #! delay [9:0] $end
    $scope module flags_in $end
     $var wire 1 5 V $end
     $var wire 1 6 S $end
     $var wire 1 7 Z $end
     $var wire 1 8 AC $end
     $var wire 1 9 P $end
     $var wire 1 : CY $end
     $var wire 1 ; MD $end
     $var wire 1 < DIR $end
     $var wire 1 = IE $end
     $var wire 1 > BRK $end
    $upscope $end
    $scope module flags $end
     $var wire 1 u V $end
     $var wire 1 v S $end
     $var wire 1 w Z $end
     $var wire 1 x AC $end
     $var wire 1 y P $end
     $var wire 1 z CY $end
     $var wire 1 { MD $end
     $var wire 1 | DIR $end
     $var wire 1 } IE $end
     $var wire 1 ~ BRK $end
    $upscope $end
    $scope module unnamedblk1 $end
     $var wire 1 M! calc_parity $end
     $var wire 1 N! calc_sign $end
     $var wire 1 O! calc_zero $end
     $scope module fcalc $end
      $var wire 1 9# V $end
      $var wire 1 :# S $end
      $var wire 1 ;# Z $end
      $var wire 1 <# AC $end
      $var wire 1 =# P $end
      $var wire 1 ># CY $end
      $var wire 1 ?# MD $end
      $var wire 1 @# DIR $end
      $var wire 1 A# IE $end
      $var wire 1 B# BRK $end
     $upscope $end
     $var wire 16 P! res [15:0] $end
     $var wire 17 Q! temp17 [16:0] $end
     $var wire 17 R! temp17_2 [16:0] $end
     $var wire 9 S! temp9 [8:0] $end
     $var wire 16 T! bit_shift_mask [15:0] $end
    $upscope $end
   $upscope $end
   $scope module BCU $end
    $var wire 1 G" clk $end
    $var wire 1 H" ce_1 $end
    $var wire 1 I" ce_2 $end
    $var wire 1 J" reset $end
    $var wire 1 K" hldrq $end
    $var wire 1 L" n_ready $end
    $var wire 1 M" bs16 $end
    $var wire 1 ( hldak $end
    $var wire 1 ) n_buslock $end
    $var wire 1 * n_ube $end
    $var wire 1 + r_w $end
    $var wire 1 , m_io $end
    $var wire 1 - busst0 $end
    $var wire 1 . busst1 $end
    $var wire 1 5# aex $end
    $var wire 1 / n_bcyst $end
    $var wire 1 0 n_dstb $end
    $var wire 24 1 addr [23:0] $end
    $var wire 16 2 dout [15:0] $end
    $var wire 16 _" din [15:0] $end
    $var wire 16 d" reg_ps [15:0] $end
    $var wire 16 c" reg_ss [15:0] $end
    $var wire 16 a" reg_ds0 [15:0] $end
    $var wire 16 b" reg_ds1 [15:0] $end
    $var wire 1 q" pfp_set $end
    $var wire 1 6# block_prefetch $end
    $var wire 16 ' ipq_head [15:0] $end
    $var wire 8 G ipq[0] [7:0] $end
    $var wire 8 H ipq[1] [7:0] $end
    $var wire 8 I ipq[2] [7:0] $end
    $var wire 8 J ipq[3] [7:0] $end
    $var wire 8 K ipq[4] [7:0] $end
    $var wire 8 L ipq[5] [7:0] $end
    $var wire 8 M ipq[6] [7:0] $end
    $var wire 8 N ipq[7] [7:0] $end
    $var wire 4 % ipq_len [3:0] $end
    $var wire 16 ? dp_addr [15:0] $end
    $var wire 16 @ dp_dout [15:0] $end
    $var wire 16 # dp_din [15:0] $end
    $var wire 2 A dp_sreg [1:0] $end
    $var wire 1 C dp_write $end
    $var wire 1 D dp_wide $end
    $var wire 1 E dp_io $end
    $var wire 1 F dp_req $end
    $var wire 1 B dp_zero_seg $end
    $var wire 1 $ dp_ready $end
    $var wire 1 $# buslock_prefix $end
    $var wire 1 U! implementation_fault $end
    $var wire 1 0# intreq $end
    $var wire 1 U intack $end
    $var wire 8 V intvec [7:0] $end
    $var wire 20 V! physical_addr__Vstatic__addr [19:0] $end
    $var wire 2 W! t_state [1:0] $end
    $var wire 3 X! cycle_type [2:0] $end
    $var wire 1 Y! dp_busy $end
    $var wire 1 Z! dp_final_cycle $end
    $var wire 1 [! dp_req2 $end
    $var wire 16 \! dp_din_buf [15:0] $end
    $var wire 16 ]! reg_pfp [15:0] $end
    $var wire 1 ^! discard_ipq_fetch $end
    $var wire 1 3# dp_bus_ready $end
    $var wire 32 _! intack_idles [31:0] $end
    $var wire 4 `! prefetch_delay [3:0] $end
    $scope module unnamedblk1 $end
     $var wire 16 a! cur_pfp [15:0] $end
     $scope module unnamedblk2 $end
      $var wire 1 b! do_prefetch $end
     $upscope $end
    $upscope $end
   $upscope $end
   $scope module divider $end
    $var wire 1 G" clk $end
    $var wire 1 4# ce $end
    $var wire 1 J" reset $end
    $var wire 1 $! start $end
    $var wire 1 %! wide $end
    $var wire 1 '! done $end
    $var wire 1 (! overflow $end
    $var wire 1 )! dbz $end
    $var wire 33 *! a [32:0] $end
    $var wire 33 ,! b [32:0] $end
    $var wire 16 .! quot [15:0] $end
    $var wire 16 /! rem [15:0] $end
    $var wire 1 c! done_16 $end
    $var wire 1 d! done_32 $end
    $var wire 1 e! overflow_16 $end
    $var wire 1 f! overflow_32 $end
    $var wire 1 g! dbz_16 $end
    $var wire 1 h! dbz_32 $end
    $var wire 16 i! quot_16 [15:0] $end
    $var wire 16 j! rem_16 [15:0] $end
    $var wire 32 k! quot_32 [31:0] $end
    $var wire 32 l! rem_32 [31:0] $end
    $var wire 32 m! a_abs [31:0] $end
    $var wire 32 n! b_abs [31:0] $end
    $scope module div_16 $end
     $var wire 32 C# WIDTH [31:0] $end
     $var wire 1 G" clk $end
     $var wire 1 4# ce $end
     $var wire 1 J" reset $end
     $var wire 1 $! start $end
     $var wire 1 c! done $end
     $var wire 1 e! overflow $end
     $var wire 1 g! dbz $end
     $var wire 16 o! a [15:0] $end
     $var wire 16 p! b [15:0] $end
     $var wire 16 i! quot [15:0] $end
     $var wire 16 j! rem [15:0] $end
     $var wire 1 q! busy $end
     $var wire 16 r! b1 [15:0] $end
     $var wire 16 s! quo [15:0] $end
     $var wire 16 t! quo_next [15:0] $end
     $var wire 17 u! acc [16:0] $end
     $var wire 17 v! acc_next [16:0] $end
     $var wire 32 w! i [31:0] $end
    $upscope $end
    $scope module div_32 $end
     $var wire 32 D# WIDTH [31:0] $end
     $var wire 1 G" clk $end
     $var wire 1 4# ce $end
     $var wire 1 J" reset $end
     $var wire 1 $! start $end
     $var wire 1 d! done $end
     $var wire 1 f! overflow $end
     $var wire 1 h! dbz $end
     $var wire 32 m! a [31:0] $end
     $var wire 32 n! b [31:0] $end
     $var wire 32 k! quot [31:0] $end
     $var wire 32 l! rem [31:0] $end
     $var wire 1 x! busy $end
     $var wire 32 y! b1 [31:0] $end
     $var wire 32 z! quo [31:0] $end
     $var wire 32 {! quo_next [31:0] $end
     $var wire 33 |! acc [32:0] $end
     $var wire 33 ~! acc_next [32:0] $end
     $var wire 32 "" i [31:0] $end
    $upscope $end
   $upscope $end
   $scope module handle_branch__Vstatic__unnamedblk1 $end
    $var wire 1 #" cond $end
   $upscope $end
   $scope module handle_branch__Vstatic__unnamedblk2 $end
    $var wire 1 $" cond $end
   $upscope $end
   $scope module nec_decode $end
    $var wire 1 G" clk $end
    $var wire 1 H" ce_1 $end
    $var wire 1 I" ce_2 $end
    $var wire 16 m" pc [15:0] $end
    $var wire 16 p" new_pc [15:0] $end
    $var wire 1 q" set_pc $end
    $var wire 1 1# retire_op $end
    $var wire 4 % ipq_len [3:0] $end
    $var wire 8 G ipq[0] [7:0] $end
    $var wire 8 H ipq[1] [7:0] $end
    $var wire 8 I ipq[2] [7:0] $end
    $var wire 8 J ipq[3] [7:0] $end
    $var wire 8 K ipq[4] [7:0] $end
    $var wire 8 L ipq[5] [7:0] $end
    $var wire 8 M ipq[6] [7:0] $end
    $var wire 8 N ipq[7] [7:0] $end
    $var wire 1 & valid $end
    $var wire 1 6# block_prefetch $end
    $scope module decoded $end
     $var wire 16 W pc [15:0] $end
     $var wire 16 X end_pc [15:0] $end
     $var wire 6 Y opcode [5:0] $end
     $var wire 2 Z opclass [1:0] $end
     $var wire 5 [ alu_operation [4:0] $end
     $var wire 4 \ source0 [3:0] $end
     $var wire 4 ] source1 [3:0] $end
     $var wire 4 ^ dest [3:0] $end
     $var wire 1 _ mem_read $end
     $var wire 1 ` mem_write $end
     $var wire 1 a io $end
     $var wire 3 b disp_size [2:0] $end
     $var wire 16 c disp [15:0] $end
     $var wire 32 d imm [31:0] $end
     $var wire 1 e segment_override $end
     $var wire 2 f segment [1:0] $end
     $var wire 1 g buslock $end
     $var wire 3 h rep [2:0] $end
     $var wire 2 i mod [1:0] $end
     $var wire 3 j rm [2:0] $end
     $var wire 3 k reg0 [2:0] $end
     $var wire 3 l reg1 [2:0] $end
     $var wire 2 m sreg [1:0] $end
     $var wire 4 n cond [3:0] $end
     $var wire 3 o shift [2:0] $end
     $var wire 2 p width [1:0] $end
     $var wire 16 q push [15:0] $end
     $var wire 16 r pop [15:0] $end
    $upscope $end
    $var wire 6 %" state [5:0] $end
    $scope module d $end
     $var wire 16 W pc [15:0] $end
     $var wire 16 X end_pc [15:0] $end
     $var wire 6 Y opcode [5:0] $end
     $var wire 2 Z opclass [1:0] $end
     $var wire 5 [ alu_operation [4:0] $end
     $var wire 4 \ source0 [3:0] $end
     $var wire 4 ] source1 [3:0] $end
     $var wire 4 ^ dest [3:0] $end
     $var wire 1 _ mem_read $end
     $var wire 1 ` mem_write $end
     $var wire 1 a io $end
     $var wire 3 b disp_size [2:0] $end
     $var wire 16 c disp [15:0] $end
     $var wire 32 d imm [31:0] $end
     $var wire 1 e segment_override $end
     $var wire 2 f segment [1:0] $end
     $var wire 1 g buslock $end
     $var wire 3 h rep [2:0] $end
     $var wire 2 i mod [1:0] $end
     $var wire 3 j rm [2:0] $end
     $var wire 3 k reg0 [2:0] $end
     $var wire 3 l reg1 [2:0] $end
     $var wire 2 m sreg [1:0] $end
     $var wire 4 n cond [3:0] $end
     $var wire 3 o shift [2:0] $end
     $var wire 2 p width [1:0] $end
     $var wire 16 q push [15:0] $end
     $var wire 16 r pop [15:0] $end
    $upscope $end
    $var wire 2 &" calc_seg__Vstatic__seg [1:0] $end
    $var wire 3 '" disp_read [2:0] $end
    $var wire 3 (" imm_read [2:0] $end
    $var wire 3 )" imm_size [2:0] $end
    $var wire 1 *" decode_valid $end
    $var wire 1 +" decode_ready $end
    $scope module unnamedblk1 $end
     $var wire 4 ," avail [3:0] $end
     $var wire 8 -" q [7:0] $end
    $upscope $end
   $upscope $end
   $scope module unnamedblk3 $end
    $var wire 16 E# addr [15:0] $end
    $var wire 32 ." result32 [31:0] $end
    $var wire 16 /" temp [15:0] $end
    $var wire 16 F# src [15:0] $end
    $var wire 8 0" temp8 [7:0] $end
    $var wire 10 1" delay [9:0] $end
    $scope module unnamedblk16 $end
     $var wire 16 2" push_data [15:0] $end
     $var wire 16 3" list [15:0] $end
     $var wire 32 4" push_idx [31:0] $end
     $scope module unnamedblk17 $end
      $var wire 32 5" i [31:0] $end
     $upscope $end
    $upscope $end
    $scope module unnamedblk18 $end
     $var wire 16 6" list [15:0] $end
     $var wire 32 7" pop_idx [31:0] $end
     $scope module unnamedblk19 $end
      $var wire 32 8" i [31:0] $end
     $upscope $end
    $upscope $end
    $scope module unnamedblk4 $end
     $var wire 1 9" working $end
     $var wire 1 :" exception $end
     $var wire 1 ;" check_interrupt $end
     $scope module unnamedblk10 $end
      $var wire 16 <" operand [15:0] $end
     $upscope $end
     $scope module unnamedblk11 $end
      $var wire 17 =" mask17 [16:0] $end
     $upscope $end
     $scope module unnamedblk12 $end
      $var wire 8 >" new_offset [7:0] $end
     $upscope $end
     $scope module unnamedblk13 $end
      $var wire 17 ?" mask17 [16:0] $end
     $upscope $end
     $scope module unnamedblk14 $end
      $var wire 8 @" new_offset [7:0] $end
     $upscope $end
     $scope module unnamedblk15 $end
      $var wire 1 A" need_delay $end
     $upscope $end
     $scope module unnamedblk5 $end
      $var wire 1 B" do_work $end
     $upscope $end
     $scope module unnamedblk6 $end
      $var wire 1 C" do_work $end
     $upscope $end
     $scope module unnamedblk7 $end
      $var wire 1 D" do_work $end
     $upscope $end
     $scope module unnamedblk8 $end
      $var wire 1 E" do_work $end
     $upscope $end
     $scope module unnamedblk9 $end
      $var wire 1 F" do_work $end
     $upscope $end
    $upscope $end
   $upscope $end
  $upscope $end
  $var wire 1 G" clk $end
  $var wire 1 H" ce_1 $end
  $var wire 1 I" ce_2 $end
  $var wire 1 J" reset $end
  $var wire 1 K" hldrq $end
  $var wire 1 L" n_ready $end
  $var wire 1 M" bs16 $end
  $var wire 1 N" hldak $end
  $var wire 1 O" n_buslock $end
  $var wire 1 P" n_ube $end
  $var wire 1 Q" r_w $end
  $var wire 1 R" m_io $end
  $var wire 1 S" busst0 $end
  $var wire 1 T" busst1 $end
  $var wire 1 U" aex $end
  $var wire 1 V" n_bcyst $end
  $var wire 1 W" n_dstb $end
  $var wire 1 X" intreq $end
  $var wire 1 Y" n_nmi $end
  $var wire 1 Z" n_cpbusy $end
  $var wire 1 [" n_cperr $end
  $var wire 1 \" cpreq $end
  $var wire 24 ]" addr [23:0] $end
  $var wire 16 ^" dout [15:0] $end
  $var wire 16 _" din [15:0] $end
  $var wire 1 `" turbo $end
 $upscope $end
$enddefinitions $end


#18000
b0000000000000000 #
1$
b0000 %
0&
b0000000000000000 '
0(
0)
0*
1+
0,
0-
0.
0/
00
b000000000000000000000000 1
b0000000000000000 2
b0000000000000000 3
b0000000000000000 4
05
06
07
08
09
0:
0;
0<
0=
0>
b0000000000000000 ?
b0000000000000000 @
b00 A
0B
0C
0D
0E
0F
b00000000 G
b00000000 H
b00000000 I
b00000000 J
b00000000 K
b00000000 L
b00000000 M
b00000000 N
b000000 O
b0000000000000000 P
0Q
b0000000000000000 R
0S
b00000000 T
0U
b00000000 V
b0000000000000000 W
b0000000000000000 X
b000000 Y
b00 Z
b00000 [
b0000 \
b0000 ]
b0000 ^
0_
0`
0a
b000 b
b0000000000000000 c
b00000000000000000000000000000000 d
0e
b00 f
0g
b000 h
b00 i
b000 j
b000 k
b000 l
b00 m
b0000 n
b000 o
b00 p
b0000000000000000 q
b0000000000000000 r
b00000 s
b0000000000000000 t
0u
0v
1w
0x
1y
0z
0{
0|
0}
0~
0!!
0"!
b0000000000 #!
0$!
0%!
0&!
0'!
0(!
0)!
b000000000000000000000000000000000 *!
b000000000000000000000000000000000 ,!
b0000000000000000 .!
b0000000000000000 /!
00!
b0000000000000000 1!
b0000000000000000 2!
b0000000000000000 3!
b0000 4!
b00000000 5!
b0000000000000000 6!
b0000000000000000 7!
b0000000000000000 8!
09!
b00000 :!
b0000000000000000 ;!
b0000000 <!
b00000 =!
b00000 >!
b00000000 ?!
b00000000 @!
b00000 A!
b00000 B!
0C!
0D!
b0000000000 E!
b0000000000 F!
b0000000000 G!
b0000000000000000 H!
b0000000000000000 I!
b0000000000000000 J!
b00 K!
b000 L!
1M!
1N!
1O!
b0000000000000000 P!
b00000000000000000 Q!
b00000000000000000 R!
b000000000 S!
b0000000000000001 T!
0U!
b00000000000000000000 V!
b00 W!
b000 X!
0Y!
0Z!
0[!
b0000000000000000 \!
b0000000000000000 ]!
0^!
b00000000000000000000000000000000 _!
b0000 `!
b0000000000000000 a!
0b!
0c!
0d!
0e!
0f!
0g!
0h!
b0000000000000000 i!
b0000000000000000 j!
b00000000000000000000000000000000 k!
b00000000000000000000000000000000 l!
b00000000000000000000000000000000 m!
b00000000000000000000000000000000 n!
b0000000000000000 o!
b0000000000000000 p!
0q!
b0000000000000000 r!
b0000000000000000 s!
b0000000000000001 t!
b00000000000000000 u!
b00000000000000000 v!
b00000000000000000000000000000000 w!
0x!
b00000000000000000000000000000000 y!
b00000000000000000000000000000000 z!
b00000000000000000000000000000001 {!
b000000000000000000000000000000000 |!
b000000000000000000000000000000000 ~!
b00000000000000000000000000000000 ""
0#"
0$"
b000000 %"
b00 &"
b000 '"
b000 ("
b000 )"
0*"
0+"
b0000 ,"
b00000000 -"
b00000000000000000000000000000000 ."
b0000000000000000 /"
b00000000 0"
b0000000000 1"
b0000000000000000 2"
b0000000000000000 3"
b00000000000000000000000000000000 4"
b00000000000000000000000000000000 5"
b0000000000000000 6"
b00000000000000000000000000000000 7"
b00000000000000000000000000000000 8"
09"
0:"
0;"
b0000000000000000 <"
b00000000000000000 ="
b00000000 >"
b00000000000000000 ?"
b00000000 @"
0A"
0B"
0C"
0D"
0E"
0F"
0G"
0H"
1I"
1J"
0K"
0L"
0M"
0N"
0O"
0P"
1Q"
0R"
0S"
0T"
0U"
0V"
0W"
0X"
0Y"
0Z"
0["
0\"
b000000000000000000000000 ]"
b0000000000000000 ^"
b0000000000000000 _"
0`"
b0000000000000000 a"
b0000000000000000 b"
b0000000000000000 c"
b0000000000000000 d"
b0000000000000000 e"
b0000000000000000 f"
b0000000000000000 g"
b0000000000000000 h"
b0000000000000000 i"
b0000000000000000 j"
b0000000000000000 k"
b0000000000000000 l"
b0000000000000000 m"
0n"
b0111000000000010 o"
b0000000000000000 p"
0q"
b0000000000000000 r"
b0000000000000000 s"
b000000 t"
b00 u"
b00000 v"
b0000 w"
b0000 x"
b0000 y"
0z"
0{"
0|"
b000 }"
b0000000000000000 ~"
b00000000000000000000000000000000 !#
0"#
b00 ##
0$#
b000 %#
b00 &#
b000 '#
b000 (#
b000 )#
b00 *#
b0000 +#
b000 ,#
b00 -#
b0000000000000000 .#
b0000000000000000 /#
00#
01#
b00000 2#
03#
14#
05#
06#
b0000000000000000 7#
b0000000000000000 8#
09#
0:#
0;#
0<#
0=#
0>#
0?#
0@#
0A#
0B#
b00000000000000000000000000010000 C#
b00000000000000000000000000100000 D#
b0000000000000000 E#
b0000000000000000 F#
b0000000000000001 G#
b0000000000000010 H#
b0000000000000100 I#
b0000000000001000 J#
b0000000000010000 K#
b0000000000100000 L#
b0000000001000000 M#
b0000000010000000 N#
b0000000100000000 O#
b0000001000000000 P#
b0000010000000000 Q#
b0000100000000000 R#
b0001000000000000 S#
b0010000000000000 T#
b0100000000000000 U#
b1000000000000000 V#
#36000
1,
1/
10
1;
1{
b10 W!
b101 X!
b1111111111111111 \!
1G"
1H"
0I"
1R"
1V"
1W"
b1111111111111111 d"
b1111000000000010 o"
1q"
#54000
b0000101110100101 #
0G"
b0000101110100101 _"
#72000
b11 Z
b10100 [
b11 f
b11 i
1G"
0H"
1I"
#90000
0G"
#108000
1G"
1H"
0I"
#126000
0G"
#144000
1G"
0H"
1I"
#162000
0G"
#180000
1G"
1H"
0I"
#198000
0G"
#216000
1G"
0H"
1I"
#234000
0G"
#252000
1G"
1H"
0I"
#270000
0G"
#288000
1G"
0H"
1I"
#306000
0G"
#324000
1G"
1H"
0I"
#342000
0G"
#360000
1G"
0H"
1I"
#378000
0G"
0J"
#396000
1^!
1G"
1H"
0I"
0q"
#414000
0G"
#432000
1)
0/
b000011111111111111110000 1
b11111111111111110000 V!
b00 W!
0^!
b00000000000000000000000000000001 _!
b0001 `!
1b!
1G"
0H"
1I"
1O"
0V"
b000011111111111111110000 ]"
#450000
b0000000011101010 #
0G"
b0000000011101010 _"
#468000
00
1G"
1H"
0I"
0W"
#486000
0G"
#504000
1/
b01 W!
1G"
0H"
1I"
1V"
#522000
0G"
#540000
b0010 %
b11101010 G
b10 W!
1Z!
b0000000000000010 ]!
1G"
1H"
0I"
#558000
0G"
#576000
0/
10
b000011111111111111110010 1
b11111111111111110010 V!
b00 W!
b00000000000000000000000000000010 _!
b0000000000000010 a!
b0010 ,"
b11101010 -"
1G"
0H"
1I"
0V"
1W"
b000011111111111111110010 ]"
#594000
b0000000000000100 #
0G"
b0000000000000100 _"
#612000
b0001 %
b0000000000000001 '
00
b0000000000000001 X
b001011 Y
b10 Z
b0010 \
b11 p
b000001 %"
b100 )"
1G"
1H"
0I"
0W"
b0000000000000001 m"
#630000
0G"
#648000
1/
b01 W!
b0001 ,"
b00000000 -"
1G"
0H"
1I"
1V"
#666000
0G"
#684000
b0010 %
b0000000000000010 '
b00000100 I
b0000000000000010 X
b10 W!
b0000000000000100 ]!
b001 ("
1*"
1G"
1H"
0I"
b0000000000000010 m"
#702000
0G"
#720000
0/
10
b000011111111111111110100 1
b11111111111111110100 V!
b00 W!
b00000000000000000000000000000011 _!
b0000000000000100 a!
b0010 ,"
b00000100 -"
1G"
0H"
1I"
0V"
1W"
b000011111111111111110100 ]"
#738000
b0000000000000000 #
0G"
b0000000000000000 _"
#756000
b0001 %
b0000000000000011 '
00
b0000000000000011 X
b00000000000000000000010000000000 d
b010 ("
1G"
1H"
0I"
0W"
b0000000000000011 m"
#774000
0G"
#792000
1/
b01 W!
b0001 ,"
b00000000 -"
1G"
0H"
1I"
1V"
#810000
0G"
#828000
b0010 %
b0000000000000100 '
b0000000000000100 X
b10 W!
b0000000000000110 ]!
b011 ("
1G"
1H"
0I"
b0000000000000100 m"
#846000
0G"
