traces/sim/mov_2byte_from_mem.vcd
$version Generated by VerilatedVcd $end
$timescale 1ps $end
 $scope module TOP $end
  $scope module types $end
   $var wire 16 ?# STACK_AW [15:0] $end
   $var wire 16 @# STACK_CW [15:0] $end
   $var wire 16 A# STACK_DW [15:0] $end
   $var wire 16 B# STACK_BW [15:0] $end
   $var wire 16 C# STACK_SP [15:0] $end
   $var wire 16 D# STACK_BP_SKIP_SP [15:0] $end
   $var wire 16 E# STACK_BP [15:0] $end
   $var wire 16 F# STACK_IX [15:0] $end
   $var wire 16 G# STACK_IY [15:0] $end
   $var wire 16 H# STACK_DS1 [15:0] $end
   $var wire 16 I# STACK_PSW [15:0] $end
   $var wire 16 J# STACK_PS [15:0] $end
   $var wire 16 K# STACK_SS [15:0] $end
   $var wire 16 L# STACK_DS0 [15:0] $end
   $var wire 16 M# STACK_PC [15:0] $end
   $var wire 16 N# STACK_OPERAND [15:0] $end
  $upscope $end
  $scope module V33 $end
   $var wire 1 @" clk $end
   $var wire 1 A" ce_1 $end
   $var wire 1 B" ce_2 $end
   $var wire 1 C" reset $end
   $var wire 1 D" hldrq $end
   $var wire 1 E" n_ready $end
   $var wire 1 F" bs16 $end
   $var wire 1 # hldak $end
   $var wire 1 $ n_buslock $end
   $var wire 1 % n_ube $end
   $var wire 1 & r_w $end
   $var wire 1 ' m_io $end
   $var wire 1 ( busst0 $end
   $var wire 1 ) busst1 $end
   $var wire 1 0# aex $end
   $var wire 1 * n_bcyst $end
   $var wire 1 + n_dstb $end
   $var wire 1 Q" intreq $end
   $var wire 1 R" n_nmi $end
   $var wire 1 S" n_cpbusy $end
   $var wire 1 T" n_cperr $end
   $var wire 1 U" cpreq $end
   $var wire 24 , addr [23:0] $end
   $var wire 16 - dout [15:0] $end
   $var wire 16 X" din [15:0] $end
   $var wire 1 Y" turbo $end
   $var wire 16 Z" reg_ds0 [15:0] $end
   $var wire 16 [" reg_ds1 [15:0] $end
   $var wire 16 \" reg_ss [15:0] $end
   $var wire 16 ]" reg_ps [15:0] $end
   $var wire 16 ^" reg_aw [15:0] $end
   $var wire 16 _" reg_bw [15:0] $end
   $var wire 16 `" reg_cw [15:0] $end
   $var wire 16 a" reg_dw [15:0] $end
   $var wire 16 b" reg_sp [15:0] $end
   $var wire 16 c" reg_bp [15:0] $end
   $var wire 16 d" reg_ix [15:0] $end
   $var wire 16 e" reg_iy [15:0] $end
   $var wire 16 f" cur_pc [15:0] $end
   $var wire 16 . TA [15:0] $end
   $var wire 16 / TB [15:0] $end
   $var wire 1 g" halt $end
   $scope module flags $end
    $var wire 1 0 V $end
    $var wire 1 1 S $end
    $var wire 1 2 Z $end
    $var wire 1 3 AC $end
    $var wire 1 4 P $end
    $var wire 1 5 CY $end
    $var wire 1 6 MD $end
    $var wire 1 7 DIR $end
    $var wire 1 8 IE $end
    $var wire 1 9 BRK $end
   $upscope $end
   $var wire 16 h" reg_psw [15:0] $end
   $var wire 16 : dp_addr [15:0] $end
   $var wire 16 ; dp_dout [15:0] $end
   $var wire 16 i" dp_din [15:0] $end
   $var wire 2 < dp_sreg [1:0] $end
   $var wire 1 = dp_zero_seg $end
   $var wire 1 > dp_write $end
   $var wire 1 ? dp_wide $end
   $var wire 1 @ dp_io $end
   $var wire 1 A dp_req $end
   $var wire 1 j" dp_ready $end
   $var wire 16 k" next_pc [15:0] $end
   $var wire 1 l" set_pc $end
   $var wire 8 B ipq[0] [7:0] $end
   $var wire 8 C ipq[1] [7:0] $end
   $var wire 8 D ipq[2] [7:0] $end
   $var wire 8 E ipq[3] [7:0] $end
   $var wire 8 F ipq[4] [7:0] $end
   $var wire 8 G ipq[5] [7:0] $end
   $var wire 8 H ipq[6] [7:0] $end
   $var wire 8 I ipq[7] [7:0] $end
   $var wire 4 m" ipq_len [3:0] $end
   $scope module store_decoded $end
    $var wire 16 J pc [15:0] $end
    $var wire 6 K opcode [5:0] $end
    $var wire 6 L alu_operation [5:0] $end
    $var wire 4 M source0 [3:0] $end
    $var wire 4 N source1 [3:0] $end
    $var wire 4 O dest [3:0] $end
    $var wire 1 P mem_read $end
    $var wire 1 Q mem_write $end
    $var wire 16 R disp [15:0] $end
    $var wire 32 S imm [31:0] $end
    $var wire 1 T segment_override $end
    $var wire 2 U segment [1:0] $end
    $var wire 1 V buslock $end
    $var wire 3 W rep [2:0] $end
    $var wire 2 X mod [1:0] $end
    $var wire 3 Y rm [2:0] $end
    $var wire 3 Z reg0 [2:0] $end
    $var wire 3 [ reg1 [2:0] $end
    $var wire 2 \ sreg [1:0] $end
    $var wire 4 ] cond [3:0] $end
    $var wire 3 ^ shift [2:0] $end
    $var wire 2 _ width [1:0] $end
    $var wire 16 ` push [15:0] $end
    $var wire 16 a pop [15:0] $end
    $var wire 10 b cycles [9:0] $end
    $var wire 10 c mem_cycles [9:0] $end
   $upscope $end
   $scope module decoded $end
    $var wire 16 n" pc [15:0] $end
    $var wire 6 o" opcode [5:0] $end
    $var wire 6 p" alu_operation [5:0] $end
    $var wire 4 q" source0 [3:0] $end
    $var wire 4 r" source1 [3:0] $end
    $var wire 4 s" dest [3:0] $end
    $var wire 1 t" mem_read $end
    $var wire 1 u" mem_write $end
    $var wire 16 v" disp [15:0] $end
    $var wire 32 w" imm [31:0] $end
    $var wire 1 x" segment_override $end
    $var wire 2 y" segment [1:0] $end
    $var wire 1 z" buslock $end
    $var wire 3 {" rep [2:0] $end
    $var wire 2 |" mod [1:0] $end
    $var wire 3 }" rm [2:0] $end
    $var wire 3 ~" reg0 [2:0] $end
    $var wire 3 !# reg1 [2:0] $end
    $var wire 2 "# sreg [1:0] $end
    $var wire 4 ## cond [3:0] $end
    $var wire 3 $# shift [2:0] $end
    $var wire 2 %# width [1:0] $end
    $var wire 16 &# push [15:0] $end
    $var wire 16 '# pop [15:0] $end
    $var wire 10 (# cycles [9:0] $end
    $var wire 10 )# mem_cycles [9:0] $end
   $upscope $end
   $var wire 6 d cur_opcode [5:0] $end
   $var wire 16 e calc_ea__Vstatic__addr [15:0] $end
   $var wire 8 f interrupt_vector [7:0] $end
   $var wire 1 *# bcu_intreq $end
   $var wire 1 g bcu_intack $end
   $var wire 8 h bcu_intvec [7:0] $end
   $var wire 1 i block_prefetch $end
   $var wire 1 j retire_op $end
   $var wire 1 +# next_decode_valid $end
   $scope module next_decode $end
    $var wire 16 k pc [15:0] $end
    $var wire 6 l opcode [5:0] $end
    $var wire 6 m alu_operation [5:0] $end
    $var wire 4 n source0 [3:0] $end
    $var wire 4 o source1 [3:0] $end
    $var wire 4 p dest [3:0] $end
    $var wire 1 q mem_read $end
    $var wire 1 r mem_write $end
    $var wire 16 s disp [15:0] $end
    $var wire 32 t imm [31:0] $end
    $var wire 1 u segment_override $end
    $var wire 2 v segment [1:0] $end
    $var wire 1 w buslock $end
    $var wire 3 x rep [2:0] $end
    $var wire 2 y mod [1:0] $end
    $var wire 3 z rm [2:0] $end
    $var wire 3 { reg0 [2:0] $end
    $var wire 3 | reg1 [2:0] $end
    $var wire 2 } sreg [1:0] $end
    $var wire 4 ~ cond [3:0] $end
    $var wire 3 !! shift [2:0] $end
    $var wire 2 "! width [1:0] $end
    $var wire 16 #! push [15:0] $end
    $var wire 16 $! pop [15:0] $end
    $var wire 10 %! cycles [9:0] $end
    $var wire 10 &! mem_cycles [9:0] $end
   $upscope $end
   $var wire 6 '! alu_operation [5:0] $end
   $var wire 32 (! alu_result [31:0] $end
   $scope module alu_flags_result $end
    $var wire 1 )! V $end
    $var wire 1 *! S $end
    $var wire 1 +! Z $end
    $var wire 1 ,! AC $end
    $var wire 1 -! P $end
    $var wire 1 .! CY $end
    $var wire 1 /! MD $end
    $var wire 1 0! DIR $end
    $var wire 1 1! IE $end
    $var wire 1 2! BRK $end
   $upscope $end
   $var wire 1 3! use_alu_result $end
   $var wire 1 4! alu_wide $end
   $var wire 10 5! alu_cycles [9:0] $end
   $var wire 1 6! div_start $end
   $var wire 1 7! div_wide $end
   $var wire 1 8! div_signed $end
   $var wire 1 9! div_done $end
   $var wire 1 :! div_overflow $end
   $var wire 1 ;! div_dbz $end
   $var wire 33 <! div_num [32:0] $end
   $var wire 33 >! div_denom [32:0] $end
   $var wire 16 @! div_quot [15:0] $end
   $var wire 16 A! div_rem [15:0] $end
   $var wire 5 ,# state [4:0] $end
   $var wire 16 B! calculated_ea [15:0] $end
   $var wire 16 C! op_result [15:0] $end
   $var wire 16 D! branch_new_pc [15:0] $end
   $var wire 16 E! branch_new_ps [15:0] $end
   $var wire 4 F! exec_stage [3:0] $end
   $var wire 16 G! push_list [15:0] $end
   $var wire 16 H! pop_list [15:0] $end
   $var wire 16 I! push_sp_save [15:0] $end
   $var wire 5 J! prepare_nesting_level [4:0] $end
   $var wire 16 K! prepare_sp_save [15:0] $end
   $var wire 7 L! bcd_offset [6:0] $end
   $var wire 5 M! bcd_acc_high [4:0] $end
   $var wire 5 N! bcd_acc_low [4:0] $end
   $var wire 8 O! bcd_acc [7:0] $end
   $var wire 8 P! bcd_src [7:0] $end
   $var wire 5 Q! bcd_result_high [4:0] $end
   $var wire 5 R! bcd_result_low [4:0] $end
   $var wire 1 S! stack_modified_pc $end
   $var wire 1 T! stack_modified_ps $end
   $var wire 10 U! cycles [9:0] $end
   $var wire 10 V! op_cycles [9:0] $end
   $scope module ALU $end
    $var wire 1 @" clk $end
    $var wire 6 '! operation [5:0] $end
    $var wire 16 . ta [15:0] $end
    $var wire 16 / tb [15:0] $end
    $var wire 1 4! wide $end
    $var wire 32 (! result [31:0] $end
    $var wire 10 5! alu_cycles [9:0] $end
    $scope module flags_in $end
     $var wire 1 0 V $end
     $var wire 1 1 S $end
     $var wire 1 2 Z $end
     $var wire 1 3 AC $end
     $var wire 1 4 P $end
     $var wire 1 5 CY $end
     $var wire 1 6 MD $end
     $var wire 1 7 DIR $end
     $var wire 1 8 IE $end
     $var wire 1 9 BRK $end
    $upscope $end
    $scope module flags $end
     $var wire 1 )! V $end
     $var wire 1 *! S $end
     $var wire 1 +! Z $end
     $var wire 1 ,! AC $end
     $var wire 1 -! P $end
     $var wire 1 .! CY $end
     $var wire 1 /! MD $end
     $var wire 1 0! DIR $end
     $var wire 1 1! IE $end
     $var wire 1 2! BRK $end
    $upscope $end
    $scope module unnamedblk1 $end
     $var wire 1 W! calc_parity $end
     $var wire 1 X! calc_sign $end
     $var wire 1 Y! calc_zero $end
     $scope module fcalc $end
      $var wire 1 1# V $end
      $var wire 1 2# S $end
      $var wire 1 3# Z $end
      $var wire 1 4# AC $end
      $var wire 1 5# P $end
      $var wire 1 6# CY $end
      $var wire 1 7# MD $end
      $var wire 1 8# DIR $end
      $var wire 1 9# IE $end
      $var wire 1 :# BRK $end
     $upscope $end
     $var wire 16 Z! res [15:0] $end
     $var wire 17 [! temp17 [16:0] $end
     $var wire 17 \! temp17_2 [16:0] $end
     $var wire 9 ]! temp9 [8:0] $end
     $var wire 32 ^! result32 [31:0] $end
     $var wire 1 _! use_result32 $end
     $var wire 18 `! sh18 [17:0] $end
     $var wire 34 a! sh34 [33:0] $end
     $var wire 6 c! sz [5:0] $end
     $var wire 6 d! sz_inv [5:0] $end
     $var wire 16 e! bit_shift_mask [15:0] $end
    $upscope $end
   $upscope $end
   $scope module BCU $end
    $var wire 1 @" clk $end
    $var wire 1 A" ce_1 $end
    $var wire 1 B" ce_2 $end
    $var wire 1 C" reset $end
    $var wire 1 D" hldrq $end
    $var wire 1 E" n_ready $end
    $var wire 1 F" bs16 $end
    $var wire 1 # hldak $end
    $var wire 1 $ n_buslock $end
    $var wire 1 % n_ube $end
    $var wire 1 & r_w $end
    $var wire 1 ' m_io $end
    $var wire 1 ( busst0 $end
    $var wire 1 ) busst1 $end
    $var wire 1 0# aex $end
    $var wire 1 * n_bcyst $end
    $var wire 1 + n_dstb $end
    $var wire 24 , addr [23:0] $end
    $var wire 16 - dout [15:0] $end
    $var wire 16 X" din [15:0] $end
    $var wire 16 ]" reg_ps [15:0] $end
    $var wire 16 \" reg_ss [15:0] $end
    $var wire 16 Z" reg_ds0 [15:0] $end
    $var wire 16 [" reg_ds1 [15:0] $end
    $var wire 1 l" pfp_set $end
    $var wire 1 i block_prefetch $end
    $var wire 16 -# ipq_head [15:0] $end
    $var wire 8 B ipq[0] [7:0] $end
    $var wire 8 C ipq[1] [7:0] $end
    $var wire 8 D ipq[2] [7:0] $end
    $var wire 8 E ipq[3] [7:0] $end
    $var wire 8 F ipq[4] [7:0] $end
    $var wire 8 G ipq[5] [7:0] $end
    $var wire 8 H ipq[6] [7:0] $end
    $var wire 8 I ipq[7] [7:0] $end
    $var wire 4 m" ipq_len [3:0] $end
    $var wire 16 : dp_addr [15:0] $end
    $var wire 16 ; dp_dout [15:0] $end
    $var wire 16 i" dp_din [15:0] $end
    $var wire 2 < dp_sreg [1:0] $end
    $var wire 1 > dp_write $end
    $var wire 1 ? dp_wide $end
    $var wire 1 @ dp_io $end
    $var wire 1 A dp_req $end
    $var wire 1 = dp_zero_seg $end
    $var wire 1 j" dp_ready $end
    $var wire 1 z" buslock_prefix $end
    $var wire 1 f! implementation_fault $end
    $var wire 1 *# intreq $end
    $var wire 1 g intack $end
    $var wire 8 h intvec [7:0] $end
    $var wire 20 g! physical_addr__Vstatic__addr [19:0] $end
    $var wire 2 h! t_state [1:0] $end
    $var wire 3 i! cycle_type [2:0] $end
    $var wire 1 j! dp_busy $end
    $var wire 1 k! dp_final_cycle $end
    $var wire 1 l! dp_req2 $end
    $var wire 16 m! dp_din_buf [15:0] $end
    $var wire 16 n! reg_pfp [15:0] $end
    $var wire 1 o! discard_ipq_fetch $end
    $var wire 1 .# dp_bus_ready $end
    $var wire 32 p! intack_idles [31:0] $end
    $var wire 4 q! prefetch_delay [3:0] $end
    $scope module unnamedblk1 $end
     $var wire 16 r! cur_pfp [15:0] $end
     $scope module unnamedblk2 $end
      $var wire 1 s! do_prefetch $end
     $upscope $end
    $upscope $end
   $upscope $end
   $scope module divider $end
    $var wire 1 @" clk $end
    $var wire 1 /# ce $end
    $var wire 1 C" reset $end
    $var wire 1 6! start $end
    $var wire 1 7! wide $end
    $var wire 1 9! done $end
    $var wire 1 :! overflow $end
    $var wire 1 ;! dbz $end
    $var wire 33 <! a [32:0] $end
    $var wire 33 >! b [32:0] $end
    $var wire 16 @! quot [15:0] $end
    $var wire 16 A! rem [15:0] $end
    $var wire 1 t! busy $end
    $var wire 32 u! b1 [31:0] $end
    $var wire 32 v! quo [31:0] $end
    $var wire 32 w! quo_next [31:0] $end
    $var wire 33 x! acc [32:0] $end
    $var wire 33 z! acc_next [32:0] $end
    $var wire 32 |! i [31:0] $end
   $upscope $end
   $scope module nec_decode $end
    $var wire 1 @" clk $end
    $var wire 1 A" ce_1 $end
    $var wire 1 B" ce_2 $end
    $var wire 16 f" pc [15:0] $end
    $var wire 16 k" new_pc [15:0] $end
    $var wire 1 l" set_pc $end
    $var wire 1 j retire_op $end
    $var wire 4 m" ipq_len [3:0] $end
    $var wire 8 B ipq[0] [7:0] $end
    $var wire 8 C ipq[1] [7:0] $end
    $var wire 8 D ipq[2] [7:0] $end
    $var wire 8 E ipq[3] [7:0] $end
    $var wire 8 F ipq[4] [7:0] $end
    $var wire 8 G ipq[5] [7:0] $end
    $var wire 8 H ipq[6] [7:0] $end
    $var wire 8 I ipq[7] [7:0] $end
    $var wire 1 +# valid $end
    $scope module decoded $end
     $var wire 16 k pc [15:0] $end
     $var wire 6 l opcode [5:0] $end
     $var wire 6 m alu_operation [5:0] $end
     $var wire 4 n source0 [3:0] $end
     $var wire 4 o source1 [3:0] $end
     $var wire 4 p dest [3:0] $end
     $var wire 1 q mem_read $end
     $var wire 1 r mem_write $end
     $var wire 16 s disp [15:0] $end
     $var wire 32 t imm [31:0] $end
     $var wire 1 u segment_override $end
     $var wire 2 v segment [1:0] $end
     $var wire 1 w buslock $end
     $var wire 3 x rep [2:0] $end
     $var wire 2 y mod [1:0] $end
     $var wire 3 z rm [2:0] $end
     $var wire 3 { reg0 [2:0] $end
     $var wire 3 | reg1 [2:0] $end
     $var wire 2 } sreg [1:0] $end
     $var wire 4 ~ cond [3:0] $end
     $var wire 3 !! shift [2:0] $end
     $var wire 2 "! width [1:0] $end
     $var wire 16 #! push [15:0] $end
     $var wire 16 $! pop [15:0] $end
     $var wire 10 %! cycles [9:0] $end
     $var wire 10 &! mem_cycles [9:0] $end
    $upscope $end
    $var wire 6 }! state [5:0] $end
    $scope module d $end
     $var wire 16 k pc [15:0] $end
     $var wire 6 l opcode [5:0] $end
     $var wire 6 m alu_operation [5:0] $end
     $var wire 4 n source0 [3:0] $end
     $var wire 4 o source1 [3:0] $end
     $var wire 4 p dest [3:0] $end
     $var wire 1 q mem_read $end
     $var wire 1 r mem_write $end
     $var wire 16 s disp [15:0] $end
     $var wire 32 t imm [31:0] $end
     $var wire 1 u segment_override $end
     $var wire 2 v segment [1:0] $end
     $var wire 1 w buslock $end
     $var wire 3 x rep [2:0] $end
     $var wire 2 y mod [1:0] $end
     $var wire 3 z rm [2:0] $end
     $var wire 3 { reg0 [2:0] $end
     $var wire 3 | reg1 [2:0] $end
     $var wire 2 } sreg [1:0] $end
     $var wire 4 ~ cond [3:0] $end
     $var wire 3 !! shift [2:0] $end
     $var wire 2 "! width [1:0] $end
     $var wire 16 #! push [15:0] $end
     $var wire 16 $! pop [15:0] $end
     $var wire 10 %! cycles [9:0] $end
     $var wire 10 &! mem_cycles [9:0] $end
    $upscope $end
    $var wire 2 ;# calc_seg__Vstatic__seg [1:0] $end
    $var wire 3 ~! disp_read [2:0] $end
    $var wire 3 !" imm_read [2:0] $end
    $var wire 3 "" disp_size [2:0] $end
    $var wire 3 #" imm_size [2:0] $end
    $var wire 1 $" decode_ready $end
    $scope module unnamedblk1 $end
     $var wire 4 %" avail [3:0] $end
     $var wire 8 &" q [7:0] $end
    $upscope $end
   $upscope $end
   $scope module unnamedblk1 $end
    $var wire 16 <# addr [15:0] $end
    $var wire 32 '" result32 [31:0] $end
    $var wire 16 (" temp [15:0] $end
    $var wire 16 =# src [15:0] $end
    $var wire 8 )" temp8 [7:0] $end
    $var wire 10 *" delay [9:0] $end
    $var wire 1 ># branch $end
    $scope module unnamedblk12 $end
     $var wire 16 +" list [15:0] $end
     $var wire 32 ," pop_idx [31:0] $end
     $var wire 1 -" skip_sp $end
     $var wire 1 ." mem_write $end
     $scope module unnamedblk13 $end
      $var wire 32 /" i [31:0] $end
     $upscope $end
    $upscope $end
    $scope module unnamedblk14 $end
     $var wire 16 0" push_data [15:0] $end
     $var wire 16 1" list [15:0] $end
     $var wire 32 2" push_idx [31:0] $end
     $scope module unnamedblk15 $end
      $var wire 32 3" i [31:0] $end
     $upscope $end
    $upscope $end
    $scope module unnamedblk2 $end
     $var wire 1 4" working $end
     $var wire 1 5" exception $end
     $var wire 1 6" branch $end
     $scope module unnamedblk10 $end
      $var wire 16 7" operand [15:0] $end
     $upscope $end
     $scope module unnamedblk11 $end
      $var wire 1 8" need_delay $end
     $upscope $end
     $scope module unnamedblk3 $end
      $var wire 1 9" cond $end
     $upscope $end
     $scope module unnamedblk4 $end
      $var wire 1 :" cond $end
     $upscope $end
     $scope module unnamedblk5 $end
      $var wire 1 ;" do_work $end
     $upscope $end
     $scope module unnamedblk6 $end
      $var wire 1 <" do_work $end
     $upscope $end
     $scope module unnamedblk7 $end
      $var wire 1 =" do_work $end
     $upscope $end
     $scope module unnamedblk8 $end
      $var wire 1 >" do_work $end
     $upscope $end
     $scope module unnamedblk9 $end
      $var wire 1 ?" do_work $end
     $upscope $end
    $upscope $end
   $upscope $end
  $upscope $end
  $var wire 1 @" clk $end
  $var wire 1 A" ce_1 $end
  $var wire 1 B" ce_2 $end
  $var wire 1 C" reset $end
  $var wire 1 D" hldrq $end
  $var wire 1 E" n_ready $end
  $var wire 1 F" bs16 $end
  $var wire 1 G" hldak $end
  $var wire 1 H" n_buslock $end
  $var wire 1 I" n_ube $end
  $var wire 1 J" r_w $end
  $var wire 1 K" m_io $end
  $var wire 1 L" busst0 $end
  $var wire 1 M" busst1 $end
  $var wire 1 N" aex $end
  $var wire 1 O" n_bcyst $end
  $var wire 1 P" n_dstb $end
  $var wire 1 Q" intreq $end
  $var wire 1 R" n_nmi $end
  $var wire 1 S" n_cpbusy $end
  $var wire 1 T" n_cperr $end
  $var wire 1 U" cpreq $end
  $var wire 24 V" addr [23:0] $end
  $var wire 16 W" dout [15:0] $end
  $var wire 16 X" din [15:0] $end
  $var wire 1 Y" turbo $end
 $upscope $end
$enddefinitions $end


#1
0#
0$
0%
1&
0'
0(
0)
0*
0+
b000000000000000000000000 ,
b0000000000000000 -
b0000000000000000 .
b0000000000000000 /
00
01
02
03
04
05
06
07
08
09
b0000000000000000 :
b0000000000000000 ;
b00 <
0=
0>
0?
0@
0A
b00000000 B
b00000000 C
b00000000 D
b00000000 E
b00000000 F
b00000000 G
b00000000 H
b00000000 I
b0000000000000000 J
b000000 K
b000000 L
b0000 M
b0000 N
b0000 O
0P
0Q
b0000000000000000 R
b00000000000000000000000000000000 S
0T
b00 U
0V
b000 W
b00 X
b000 Y
b000 Z
b000 [
b00 \
b0000 ]
b000 ^
b00 _
b0000000000000000 `
b0000000000000000 a
b0000000000 b
b0000000000 c
b000000 d
b0000000000000000 e
b00000000 f
0g
b00000000 h
0i
0j
b0000000000000000 k
b000000 l
b000000 m
b0000 n
b0000 o
b0000 p
0q
0r
b0000000000000000 s
b00000000000000000000000000000000 t
0u
b00 v
0w
b000 x
b00 y
b000 z
b000 {
b000 |
b00 }
b0000 ~
b000 !!
b00 "!
b0000000000000000 #!
b0000000000000000 $!
b0000000000 %!
b0000000000 &!
b000000 '!
b00000000000000000000000000000000 (!
0)!
0*!
1+!
0,!
1-!
0.!
0/!
00!
01!
02!
03!
04!
b0000000000 5!
06!
07!
08!
09!
0:!
0;!
b000000000000000000000000000000000 <!
b000000000000000000000000000000000 >!
b0000000000000000 @!
b0000000000000000 A!
b0000000000000000 B!
b0000000000000000 C!
b0000000000000000 D!
b0000000000000000 E!
b0000 F!
b0000000000000000 G!
b0000000000000000 H!
b0000000000000000 I!
b00000 J!
b0000000000000000 K!
b0000000 L!
b00000 M!
b00000 N!
b00000000 O!
b00000000 P!
b00000 Q!
b00000 R!
0S!
0T!
b0000000000 U!
b0000000000 V!
1W!
1X!
1Y!
b0000000000000000 Z!
b00000000000000000 [!
b00000000000000000 \!
b000000000 ]!
b00000000000000000000000000000000 ^!
0_!
b000000000000000000 `!
b0000000000000000000000000000000000 a!
b000000 c!
b000000 d!
b0000000000000001 e!
0f!
b00000000000000000000 g!
b00 h!
b000 i!
0j!
0k!
0l!
b0000000000000000 m!
b0000000000000000 n!
0o!
b00000000000000000000000000000000 p!
b0000 q!
b0000000000000000 r!
0s!
0t!
b00000000000000000000000000000000 u!
b00000000000000000000000000000000 v!
b00000000000000000000000000000001 w!
b000000000000000000000000000000000 x!
b000000000000000000000000000000000 z!
b00000000000000000000000000000000 |!
b000000 }!
b000 ~!
b000 !"
b000 ""
b000 #"
0$"
b0000 %"
b00000000 &"
b00000000000000000000000000000000 '"
b0000000000000000 ("
b00000000 )"
b0000000000 *"
b0000000000000000 +"
b00000000000000000000000000000000 ,"
0-"
0."
b00000000000000000000000000000000 /"
b0000000000000000 0"
b0000000000000000 1"
b00000000000000000000000000000000 2"
b00000000000000000000000000000000 3"
04"
05"
06"
b0000000000000000 7"
08"
09"
0:"
0;"
0<"
0="
0>"
0?"
0@"
0A"
1B"
1C"
0D"
0E"
0F"
0G"
0H"
0I"
1J"
0K"
0L"
0M"
0N"
0O"
0P"
0Q"
0R"
0S"
0T"
0U"
b000000000000000000000000 V"
b0000000000000000 W"
b0000000000000000 X"
0Y"
b0000000000000000 Z"
b0000000000000000 ["
b0000000000000000 \"
b0000000000000000 ]"
b0000000000000000 ^"
b0000000000000000 _"
b0000000000000000 `"
b0000000000000000 a"
b0000000000000000 b"
b0000000000000000 c"
b0000000000000000 d"
b0000000000000000 e"
b0000000000000000 f"
0g"
b0111000000000010 h"
b0000000000000000 i"
1j"
b0000000000000000 k"
0l"
b0000 m"
b0000000000000000 n"
b000000 o"
b000000 p"
b0000 q"
b0000 r"
b0000 s"
0t"
0u"
b0000000000000000 v"
b00000000000000000000000000000000 w"
0x"
b00 y"
0z"
b000 {"
b00 |"
b000 }"
b000 ~"
b000 !#
b00 "#
b0000 ##
b000 $#
b00 %#
b0000000000000000 &#
b0000000000000000 '#
b0000000000 (#
b0000000000 )#
0*#
0+#
b00000 ,#
b0000000000000000 -#
0.#
1/#
00#
01#
02#
03#
04#
05#
06#
07#
08#
09#
0:#
b00 ;#
b0000000000000000 <#
b0000000000000000 =#
0>#
b0000000000000001 ?#
b0000000000000010 @#
b0000000000000100 A#
b0000000000001000 B#
b0000000000010000 C#
b0000000000100000 D#
b0000000001000000 E#
b0000000010000000 F#
b0000000100000000 G#
b0000001000000000 H#
b0000010000000000 I#
b0000100000000000 J#
b0001000000000000 K#
b0010000000000000 L#
b0100000000000000 M#
b1000000000000000 N#
#2
1'
1*
1+
16
1/!
b10 h!
b101 i!
b1111111111111111 m!
1@"
1A"
0B"
1K"
1O"
1P"
b1111111111111111 ]"
b1111000000000010 h"
1l"
#3
0@"
b0000101110100101 X"
b0000101110100101 i"
#4
b100100 m
b11 v
b11 y
1@"
0A"
1B"
#5
0@"
#6
1@"
1A"
0B"
#7
0@"
#8
1@"
0A"
1B"
#9
0@"
#10
1@"
1A"
0B"
#11
0@"
#12
1@"
0A"
1B"
#13
0@"
#14
1@"
1A"
0B"
#15
0@"
#16
1@"
0A"
1B"
#17
0@"
#18
1@"
1A"
0B"
#19
0@"
#20
1@"
0A"
1B"
#21
0@"
0C"
#22
1o!
1@"
1A"
0B"
0l"
#23
0@"
#24
1$
b00000000000000000000000000000001 p!
b0001 q!
1@"
0A"
1B"
1H"
#25
0@"
#26
1@"
1A"
0B"
#27
0@"
#28
0*
b000011111111111111110000 ,
b11111111111111110000 g!
b00 h!
0o!
b00000000000000000000000000000010 p!
1s!
1@"
0A"
1B"
0O"
b000011111111111111110000 V"
#29
0@"
b0000000011101010 X"
b0000000011101010 i"
#30
0+
1@"
1A"
0B"
0P"
#31
0@"
#32
1*
b01 h!
1@"
0A"
1B"
1O"
#33
0@"
#34
b11101010 B
b10 h!
1k!
b0000000000000010 n!
1@"
1A"
0B"
b0010 m"
#35
0@"
#36
0*
1+
b000011111111111111110010 ,
b11111111111111110010 g!
b00 h!
b00000000000000000000000000000011 p!
b0000000000000010 r!
b0010 %"
b11101010 &"
1@"
0A"
1B"
0O"
1P"
b000011111111111111110010 V"
#37
0@"
b0000000000000100 X"
b0000000000000100 i"
#38
0+
b001101 l
b0010 n
b10 "!
b0000000011 %!
b0000000011 &!
b000001 }!
b100 #"
1@"
1A"
0B"
0P"
b0000000000000001 f"
b0001 m"
b0000000000000001 -#
#39
0@"
#40
1*
b01 h!
b0001 %"
b00000000 &"
1@"
0A"
1B"
1O"
#41
0@"
#42
b00000100 D
b10 h!
b0000000000000100 n!
b001 !"
1@"
1A"
0B"
b0000000000000010 f"
b0010 m"
b0000000000000010 -#
#43
0@"
#44
0*
1+
b000011111111111111110100 ,
b11111111111111110100 g!
b00 h!
b00000000000000000000000000000100 p!
b0000000000000100 r!
b0010 %"
b00000100 &"
1@"
0A"
1B"
0O"
1P"
b000011111111111111110100 V"
#45
0@"
b0000000000000000 X"
b0000000000000000 i"
#46
0+
b00000000000000000000010000000000 t
b010 !"
1@"
1A"
0B"
0P"
b0000000000000011 f"
b0001 m"
b0000000000000011 -#
#47
0@"
#48
1*
b01 h!
b0001 %"
b00000000 &"
1@"
0A"
1B"
1O"
#49
0@"
#50
b10 h!
b0000000000000110 n!
b011 !"
1@"
1A"
0B"
b0000000000000100 f"
b0010 m"
b0000000000000100 -#
#51
0@"
#52
0*
1+
b000011111111111111110110 ,
b11111111111111110110 g!
b00 h!
b00000000000000000000000000000101 p!
b0000000000000110 r!
b0010 %"
1@"
0A"
1B"
0O"
1P"
b000011111111111111110110 V"
#53
0@"
#54
0+
b100 !"
1$"
1@"
1A"
0B"
0P"
b0000000000000101 f"
b0001 m"
1+#
b0000000000000101 -#
#55
0@"
#56
1*
b01 h!
b0001 %"
1@"
0A"
1B"
1O"
#57
0@"
#58
b0000010000000000 .
b1111111111111111 /
b001101 d
1j
b00000000000000000000000011111111 (!
1*!
0+!
1.!
b0000010000000000 C!
b0000000011 V!
b0000001111111111 Z!
b01111111111111111 [!
b10000001111111111 \!
b0000000010000000 e!
b10 h!
b0000000000001000 n!
1@"
1A"
0B"
b0000000000000101 k"
b0011 m"
b001101 o"
b100100 p"
b0010 q"
b00000000000000000000010000000000 w"
b11 y"
b11 |"
b10 %#
b0000000011 (#
b0000000011 )#
b01010 ,#
#59
0@"
#60
0*
1+
b000011111111111111111000 ,
b11111111111111111000 g!
b00 h!
b00000000000000000000000000000110 p!
b0000000000001000 r!
b0011 %"
1@"
0A"
1B"
0O"
1P"
b000011111111111111111000 V"
#61
0@"
#62
0+
0j
b000000 l
b000000 m
b0000 n
b00 "!
b0000000000 %!
b0000000000 &!
b0000010000000000 D!
b0001 F!
b000100 }!
b000 !"
b000 #"
0$"
16"
18"
1@"
1A"
0B"
0P"
b0000000000000110 f"
b0010 m"
0+#
b01110 ,#
b0000000000000110 -#
#63
0@"
#64
1*
b01 h!
b0010 %"
1@"
0A"
1B"
1O"
b0000000000000000 ]"
b0000010000000000 k"
1l"
b0000 m"
b01111 ,#
b0000010000000000 -#
#65
0@"
