traces/sim/mov_3byte_to_mem.vcd
$version Generated by VerilatedVcd $end
$timescale 1ps $end
 $scope module TOP $end
  $scope module types $end
   $var wire 16 J# STACK_AW [15:0] $end
   $var wire 16 K# STACK_CW [15:0] $end
   $var wire 16 L# STACK_DW [15:0] $end
   $var wire 16 M# STACK_BW [15:0] $end
   $var wire 16 N# STACK_SP [15:0] $end
   $var wire 16 O# STACK_BP_SKIP_SP [15:0] $end
   $var wire 16 P# STACK_BP [15:0] $end
   $var wire 16 Q# STACK_IX [15:0] $end
   $var wire 16 R# STACK_IY [15:0] $end
   $var wire 16 S# STACK_DS1 [15:0] $end
   $var wire 16 T# STACK_PSW [15:0] $end
   $var wire 16 U# STACK_PS [15:0] $end
   $var wire 16 V# STACK_SS [15:0] $end
   $var wire 16 W# STACK_DS0 [15:0] $end
   $var wire 16 X# STACK_PC [15:0] $end
   $var wire 16 Y# STACK_OPERAND [15:0] $end
  $upscope $end
  $scope module V33 $end
   $var wire 1 J" clk $end
   $var wire 1 K" ce_1 $end
   $var wire 1 L" ce_2 $end
   $var wire 1 M" reset $end
   $var wire 1 N" hldrq $end
   $var wire 1 O" n_ready $end
   $var wire 1 P" bs16 $end
   $var wire 1 ( hldak $end
   $var wire 1 ) n_buslock $end
   $var wire 1 * n_ube $end
   $var wire 1 + r_w $end
   $var wire 1 , m_io $end
   $var wire 1 - busst0 $end
   $var wire 1 . busst1 $end
   $var wire 1 :# aex $end
   $var wire 1 / n_bcyst $end
   $var wire 1 0 n_dstb $end
   $var wire 1 [" intreq $end
   $var wire 1 \" n_nmi $end
   $var wire 1 ]" n_cpbusy $end
   $var wire 1 ^" n_cperr $end
   $var wire 1 _" cpreq $end
   $var wire 24 1 addr [23:0] $end
   $var wire 16 2 dout [15:0] $end
   $var wire 16 b" din [15:0] $end
   $var wire 1 c" turbo $end
   $var wire 16 d" reg_ds0 [15:0] $end
   $var wire 16 e" reg_ds1 [15:0] $end
   $var wire 16 f" reg_ss [15:0] $end
   $var wire 16 g" reg_ps [15:0] $end
   $var wire 16 h" reg_aw [15:0] $end
   $var wire 16 i" reg_bw [15:0] $end
   $var wire 16 j" reg_cw [15:0] $end
   $var wire 16 k" reg_dw [15:0] $end
   $var wire 16 l" reg_sp [15:0] $end
   $var wire 16 m" reg_bp [15:0] $end
   $var wire 16 n" reg_ix [15:0] $end
   $var wire 16 o" reg_iy [15:0] $end
   $var wire 16 p" cur_pc [15:0] $end
   $var wire 16 3 TA [15:0] $end
   $var wire 16 4 TB [15:0] $end
   $var wire 1 q" halt $end
   $scope module flags $end
    $var wire 1 5 V $end
    $var wire 1 6 S $end
    $var wire 1 7 Z $end
    $var wire 1 8 AC $end
    $var wire 1 9 P $end
    $var wire 1 : CY $end
    $var wire 1 ; MD $end
    $var wire 1 < DIR $end
    $var wire 1 = IE $end
    $var wire 1 > BRK $end
   $upscope $end
   $var wire 16 r" reg_psw [15:0] $end
   $var wire 16 ? dp_addr [15:0] $end
   $var wire 16 @ dp_dout [15:0] $end
   $var wire 16 # dp_din [15:0] $end
   $var wire 2 A dp_sreg [1:0] $end
   $var wire 1 B dp_zero_seg $end
   $var wire 1 C dp_write $end
   $var wire 1 D dp_wide $end
   $var wire 1 E dp_io $end
   $var wire 1 F dp_req $end
   $var wire 1 $ dp_ready $end
   $var wire 16 s" next_pc [15:0] $end
   $var wire 1 t" set_pc $end
   $var wire 8 G ipq[0] [7:0] $end
   $var wire 8 H ipq[1] [7:0] $end
   $var wire 8 I ipq[2] [7:0] $end
   $var wire 8 J ipq[3] [7:0] $end
   $var wire 8 K ipq[4] [7:0] $end
   $var wire 8 L ipq[5] [7:0] $end
   $var wire 8 M ipq[6] [7:0] $end
   $var wire 8 N ipq[7] [7:0] $end
   $var wire 4 % ipq_len [3:0] $end
   $scope module store_decoded $end
    $var wire 16 O pc [15:0] $end
    $var wire 16 P end_pc [15:0] $end
    $var wire 6 Q opcode [5:0] $end
    $var wire 2 R opclass [1:0] $end
    $var wire 6 S alu_operation [5:0] $end
    $var wire 4 T source0 [3:0] $end
    $var wire 4 U source1 [3:0] $end
    $var wire 4 V dest [3:0] $end
    $var wire 1 W mem_read $end
    $var wire 1 X mem_write $end
    $var wire 1 Y io $end
    $var wire 3 Z disp_size [2:0] $end
    $var wire 16 [ disp [15:0] $end
    $var wire 32 \ imm [31:0] $end
    $var wire 1 ] segment_override $end
    $var wire 2 ^ segment [1:0] $end
    $var wire 1 _ buslock $end
    $var wire 3 ` rep [2:0] $end
    $var wire 2 a mod [1:0] $end
    $var wire 3 b rm [2:0] $end
    $var wire 3 c reg0 [2:0] $end
    $var wire 3 d reg1 [2:0] $end
    $var wire 2 e sreg [1:0] $end
    $var wire 4 f cond [3:0] $end
    $var wire 3 g shift [2:0] $end
    $var wire 2 h width [1:0] $end
    $var wire 16 i push [15:0] $end
    $var wire 16 j pop [15:0] $end
    $var wire 10 k cycles [9:0] $end
    $var wire 10 l mem_cycles [9:0] $end
   $upscope $end
   $scope module decoded $end
    $var wire 16 u" pc [15:0] $end
    $var wire 16 v" end_pc [15:0] $end
    $var wire 6 w" opcode [5:0] $end
    $var wire 2 x" opclass [1:0] $end
    $var wire 6 y" alu_operation [5:0] $end
    $var wire 4 z" source0 [3:0] $end
    $var wire 4 {" source1 [3:0] $end
    $var wire 4 |" dest [3:0] $end
    $var wire 1 }" mem_read $end
    $var wire 1 ~" mem_write $end
    $var wire 1 !# io $end
    $var wire 3 "# disp_size [2:0] $end
    $var wire 16 ## disp [15:0] $end
    $var wire 32 $# imm [31:0] $end
    $var wire 1 %# segment_override $end
    $var wire 2 &# segment [1:0] $end
    $var wire 1 '# buslock $end
    $var wire 3 (# rep [2:0] $end
    $var wire 2 )# mod [1:0] $end
    $var wire 3 *# rm [2:0] $end
    $var wire 3 +# reg0 [2:0] $end
    $var wire 3 ,# reg1 [2:0] $end
    $var wire 2 -# sreg [1:0] $end
    $var wire 4 .# cond [3:0] $end
    $var wire 3 /# shift [2:0] $end
    $var wire 2 0# width [1:0] $end
    $var wire 16 1# push [15:0] $end
    $var wire 16 2# pop [15:0] $end
    $var wire 10 3# cycles [9:0] $end
    $var wire 10 4# mem_cycles [9:0] $end
   $upscope $end
   $var wire 6 m cur_opcode [5:0] $end
   $var wire 16 n calc_ea__Vstatic__addr [15:0] $end
   $var wire 8 o interrupt_vector [7:0] $end
   $var wire 1 5# bcu_intreq $end
   $var wire 1 p bcu_intack $end
   $var wire 8 q bcu_intvec [7:0] $end
   $var wire 1 ;# block_prefetch $end
   $var wire 1 6# retire_op $end
   $var wire 1 & next_decode_valid $end
   $scope module next_decode $end
    $var wire 16 r pc [15:0] $end
    $var wire 16 s end_pc [15:0] $end
    $var wire 6 t opcode [5:0] $end
    $var wire 2 u opclass [1:0] $end
    $var wire 6 v alu_operation [5:0] $end
    $var wire 4 w source0 [3:0] $end
    $var wire 4 x source1 [3:0] $end
    $var wire 4 y dest [3:0] $end
    $var wire 1 z mem_read $end
    $var wire 1 { mem_write $end
    $var wire 1 | io $end
    $var wire 3 } disp_size [2:0] $end
    $var wire 16 ~ disp [15:0] $end
    $var wire 32 !! imm [31:0] $end
    $var wire 1 "! segment_override $end
    $var wire 2 #! segment [1:0] $end
    $var wire 1 $! buslock $end
    $var wire 3 %! rep [2:0] $end
    $var wire 2 &! mod [1:0] $end
    $var wire 3 '! rm [2:0] $end
    $var wire 3 (! reg0 [2:0] $end
    $var wire 3 )! reg1 [2:0] $end
    $var wire 2 *! sreg [1:0] $end
    $var wire 4 +! cond [3:0] $end
    $var wire 3 ,! shift [2:0] $end
    $var wire 2 -! width [1:0] $end
    $var wire 16 .! push [15:0] $end
    $var wire 16 /! pop [15:0] $end
    $var wire 10 0! cycles [9:0] $end
    $var wire 10 1! mem_cycles [9:0] $end
   $upscope $end
   $var wire 6 2! alu_operation [5:0] $end
   $var wire 32 3! alu_result [31:0] $end
   $scope module alu_flags_result $end
    $var wire 1 4! V $end
    $var wire 1 5! S $end
    $var wire 1 6! Z $end
    $var wire 1 7! AC $end
    $var wire 1 8! P $end
    $var wire 1 9! CY $end
    $var wire 1 :! MD $end
    $var wire 1 ;! DIR $end
    $var wire 1 <! IE $end
    $var wire 1 =! BRK $end
   $upscope $end
   $var wire 1 >! use_alu_result $end
   $var wire 1 ?! alu_wide $end
   $var wire 10 @! alu_cycles [9:0] $end
   $var wire 1 A! div_start $end
   $var wire 1 B! div_wide $end
   $var wire 1 C! div_signed $end
   $var wire 1 D! div_done $end
   $var wire 1 E! div_overflow $end
   $var wire 1 F! div_dbz $end
   $var wire 33 G! div_num [32:0] $end
   $var wire 33 I! div_denom [32:0] $end
   $var wire 16 K! div_quot [15:0] $end
   $var wire 16 L! div_rem [15:0] $end
   $var wire 5 7# state [4:0] $end
   $var wire 16 M! calculated_ea [15:0] $end
   $var wire 16 N! op_result [15:0] $end
   $var wire 16 <# branch_new_pc [15:0] $end
   $var wire 16 =# branch_new_ps [15:0] $end
   $var wire 4 O! exec_stage [3:0] $end
   $var wire 16 P! push_list [15:0] $end
   $var wire 16 Q! pop_list [15:0] $end
   $var wire 16 R! push_sp_save [15:0] $end
   $var wire 5 S! prepare_nesting_level [4:0] $end
   $var wire 16 T! prepare_sp_save [15:0] $end
   $var wire 7 U! bcd_offset [6:0] $end
   $var wire 5 V! bcd_acc_high [4:0] $end
   $var wire 5 W! bcd_acc_low [4:0] $end
   $var wire 8 X! bcd_acc [7:0] $end
   $var wire 8 Y! bcd_src [7:0] $end
   $var wire 5 Z! bcd_result_high [4:0] $end
   $var wire 5 [! bcd_result_low [4:0] $end
   $var wire 1 \! stack_modified_pc $end
   $var wire 1 ]! stack_modified_ps $end
   $var wire 10 ^! cycles [9:0] $end
   $var wire 10 _! op_cycles [9:0] $end
   $var wire 10 `! exec_delay [9:0] $end
   $scope module ALU $end
    $var wire 1 J" clk $end
    $var wire 6 2! operation [5:0] $end
    $var wire 16 3 ta [15:0] $end
    $var wire 16 4 tb [15:0] $end
    $var wire 1 ?! wide $end
    $var wire 32 3! result [31:0] $end
    $var wire 10 @! alu_cycles [9:0] $end
    $scope module flags_in $end
     $var wire 1 5 V $end
     $var wire 1 6 S $end
     $var wire 1 7 Z $end
     $var wire 1 8 AC $end
     $var wire 1 9 P $end
     $var wire 1 : CY $end
     $var wire 1 ; MD $end
     $var wire 1 < DIR $end
     $var wire 1 = IE $end
     $var wire 1 > BRK $end
    $upscope $end
    $scope module flags $end
     $var wire 1 4! V $end
     $var wire 1 5! S $end
     $var wire 1 6! Z $end
     $var wire 1 7! AC $end
     $var wire 1 8! P $end
     $var wire 1 9! CY $end
     $var wire 1 :! MD $end
     $var wire 1 ;! DIR $end
     $var wire 1 <! IE $end
     $var wire 1 =! BRK $end
    $upscope $end
    $scope module unnamedblk1 $end
     $var wire 1 a! calc_parity $end
     $var wire 1 b! calc_sign $end
     $var wire 1 c! calc_zero $end
     $scope module fcalc $end
      $var wire 1 ># V $end
      $var wire 1 ?# S $end
      $var wire 1 @# Z $end
      $var wire 1 A# AC $end
      $var wire 1 B# P $end
      $var wire 1 C# CY $end
      $var wire 1 D# MD $end
      $var wire 1 E# DIR $end
      $var wire 1 F# IE $end
      $var wire 1 G# BRK $end
     $upscope $end
     $var wire 16 d! res [15:0] $end
     $var wire 17 e! temp17 [16:0] $end
     $var wire 17 f! temp17_2 [16:0] $end
     $var wire 9 g! temp9 [8:0] $end
     $var wire 32 h! result32 [31:0] $end
     $var wire 1 i! use_result32 $end
     $var wire 18 j! sh18 [17:0] $end
     $var wire 34 k! sh34 [33:0] $end
     $var wire 6 m! sz [5:0] $end
     $var wire 6 n! sz_inv [5:0] $end
     $var wire 16 o! bit_shift_mask [15:0] $end
    $upscope $end
   $upscope $end
   $scope module BCU $end
    $var wire 1 J" clk $end
    $var wire 1 K" ce_1 $end
    $var wire 1 L" ce_2 $end
    $var wire 1 M" reset $end
    $var wire 1 N" hldrq $end
    $var wire 1 O" n_ready $end
    $var wire 1 P" bs16 $end
    $var wire 1 ( hldak $end
    $var wire 1 ) n_buslock $end
    $var wire 1 * n_ube $end
    $var wire 1 + r_w $end
    $var wire 1 , m_io $end
    $var wire 1 - busst0 $end
    $var wire 1 . busst1 $end
    $var wire 1 :# aex $end
    $var wire 1 / n_bcyst $end
    $var wire 1 0 n_dstb $end
    $var wire 24 1 addr [23:0] $end
    $var wire 16 2 dout [15:0] $end
    $var wire 16 b" din [15:0] $end
    $var wire 16 g" reg_ps [15:0] $end
    $var wire 16 f" reg_ss [15:0] $end
    $var wire 16 d" reg_ds0 [15:0] $end
    $var wire 16 e" reg_ds1 [15:0] $end
    $var wire 1 t" pfp_set $end
    $var wire 1 ;# block_prefetch $end
    $var wire 16 ' ipq_head [15:0] $end
    $var wire 8 G ipq[0] [7:0] $end
    $var wire 8 H ipq[1] [7:0] $end
    $var wire 8 I ipq[2] [7:0] $end
    $var wire 8 J ipq[3] [7:0] $end
    $var wire 8 K ipq[4] [7:0] $end
    $var wire 8 L ipq[5] [7:0] $end
    $var wire 8 M ipq[6] [7:0] $end
    $var wire 8 N ipq[7] [7:0] $end
    $var wire 4 % ipq_len [3:0] $end
    $var wire 16 ? dp_addr [15:0] $end
    $var wire 16 @ dp_dout [15:0] $end
    $var wire 16 # dp_din [15:0] $end
    $var wire 2 A dp_sreg [1:0] $end
    $var wire 1 C dp_write $end
    $var wire 1 D dp_wide $end
    $var wire 1 E dp_io $end
    $var wire 1 F dp_req $end
    $var wire 1 B dp_zero_seg $end
    $var wire 1 $ dp_ready $end
    $var wire 1 '# buslock_prefix $end
    $var wire 1 p! implementation_fault $end
    $var wire 1 5# intreq $end
    $var wire 1 p intack $end
    $var wire 8 q intvec [7:0] $end
    $var wire 20 q! physical_addr__Vstatic__addr [19:0] $end
    $var wire 2 r! t_state [1:0] $end
    $var wire 3 s! cycle_type [2:0] $end
    $var wire 1 t! dp_busy $end
    $var wire 1 u! dp_final_cycle $end
    $var wire 1 v! dp_req2 $end
    $var wire 16 w! dp_din_buf [15:0] $end
    $var wire 16 x! reg_pfp [15:0] $end
    $var wire 1 y! discard_ipq_fetch $end
    $var wire 1 8# dp_bus_ready $end
    $var wire 32 z! intack_idles [31:0] $end
    $var wire 4 {! prefetch_delay [3:0] $end
    $scope module unnamedblk1 $end
     $var wire 16 |! cur_pfp [15:0] $end
     $scope module unnamedblk2 $end
      $var wire 1 }! do_prefetch $end
     $upscope $end
    $upscope $end
   $upscope $end
   $scope module divider $end
    $var wire 1 J" clk $end
    $var wire 1 9# ce $end
    $var wire 1 M" reset $end
    $var wire 1 A! start $end
    $var wire 1 B! wide $end
    $var wire 1 D! done $end
    $var wire 1 E! overflow $end
    $var wire 1 F! dbz $end
    $var wire 33 G! a [32:0] $end
    $var wire 33 I! b [32:0] $end
    $var wire 16 K! quot [15:0] $end
    $var wire 16 L! rem [15:0] $end
    $var wire 1 ~! busy $end
    $var wire 32 !" b1 [31:0] $end
    $var wire 32 "" quo [31:0] $end
    $var wire 32 #" quo_next [31:0] $end
    $var wire 33 $" acc [32:0] $end
    $var wire 33 &" acc_next [32:0] $end
    $var wire 32 (" i [31:0] $end
   $upscope $end
   $scope module handle_branch__Vstatic__unnamedblk1 $end
    $var wire 1 )" cond $end
   $upscope $end
   $scope module handle_branch__Vstatic__unnamedblk2 $end
    $var wire 1 *" cond $end
   $upscope $end
   $scope module nec_decode $end
    $var wire 1 J" clk $end
    $var wire 1 K" ce_1 $end
    $var wire 1 L" ce_2 $end
    $var wire 16 p" pc [15:0] $end
    $var wire 16 s" new_pc [15:0] $end
    $var wire 1 t" set_pc $end
    $var wire 1 6# retire_op $end
    $var wire 4 % ipq_len [3:0] $end
    $var wire 8 G ipq[0] [7:0] $end
    $var wire 8 H ipq[1] [7:0] $end
    $var wire 8 I ipq[2] [7:0] $end
    $var wire 8 J ipq[3] [7:0] $end
    $var wire 8 K ipq[4] [7:0] $end
    $var wire 8 L ipq[5] [7:0] $end
    $var wire 8 M ipq[6] [7:0] $end
    $var wire 8 N ipq[7] [7:0] $end
    $var wire 1 & valid $end
    $var wire 1 ;# block_prefetch $end
    $scope module decoded $end
     $var wire 16 r pc [15:0] $end
     $var wire 16 s end_pc [15:0] $end
     $var wire 6 t opcode [5:0] $end
     $var wire 2 u opclass [1:0] $end
     $var wire 6 v alu_operation [5:0] $end
     $var wire 4 w source0 [3:0] $end
     $var wire 4 x source1 [3:0] $end
     $var wire 4 y dest [3:0] $end
     $var wire 1 z mem_read $end
     $var wire 1 { mem_write $end
     $var wire 1 | io $end
     $var wire 3 } disp_size [2:0] $end
     $var wire 16 ~ disp [15:0] $end
     $var wire 32 !! imm [31:0] $end
     $var wire 1 "! segment_override $end
     $var wire 2 #! segment [1:0] $end
     $var wire 1 $! buslock $end
     $var wire 3 %! rep [2:0] $end
     $var wire 2 &! mod [1:0] $end
     $var wire 3 '! rm [2:0] $end
     $var wire 3 (! reg0 [2:0] $end
     $var wire 3 )! reg1 [2:0] $end
     $var wire 2 *! sreg [1:0] $end
     $var wire 4 +! cond [3:0] $end
     $var wire 3 ,! shift [2:0] $end
     $var wire 2 -! width [1:0] $end
     $var wire 16 .! push [15:0] $end
     $var wire 16 /! pop [15:0] $end
     $var wire 10 0! cycles [9:0] $end
     $var wire 10 1! mem_cycles [9:0] $end
    $upscope $end
    $var wire 6 +" state [5:0] $end
    $scope module d $end
     $var wire 16 r pc [15:0] $end
     $var wire 16 s end_pc [15:0] $end
     $var wire 6 t opcode [5:0] $end
     $var wire 2 u opclass [1:0] $end
     $var wire 6 v alu_operation [5:0] $end
     $var wire 4 w source0 [3:0] $end
     $var wire 4 x source1 [3:0] $end
     $var wire 4 y dest [3:0] $end
     $var wire 1 z mem_read $end
     $var wire 1 { mem_write $end
     $var wire 1 | io $end
     $var wire 3 } disp_size [2:0] $end
     $var wire 16 ~ disp [15:0] $end
     $var wire 32 !! imm [31:0] $end
     $var wire 1 "! segment_override $end
     $var wire 2 #! segment [1:0] $end
     $var wire 1 $! buslock $end
     $var wire 3 %! rep [2:0] $end
     $var wire 2 &! mod [1:0] $end
     $var wire 3 '! rm [2:0] $end
     $var wire 3 (! reg0 [2:0] $end
     $var wire 3 )! reg1 [2:0] $end
     $var wire 2 *! sreg [1:0] $end
     $var wire 4 +! cond [3:0] $end
     $var wire 3 ,! shift [2:0] $end
     $var wire 2 -! width [1:0] $end
     $var wire 16 .! push [15:0] $end
     $var wire 16 /! pop [15:0] $end
     $var wire 10 0! cycles [9:0] $end
     $var wire 10 1! mem_cycles [9:0] $end
    $upscope $end
    $var wire 2 ," calc_seg__Vstatic__seg [1:0] $end
    $var wire 3 -" disp_read [2:0] $end
    $var wire 3 ." imm_read [2:0] $end
    $var wire 3 /" imm_size [2:0] $end
    $var wire 1 0" decode_valid $end
    $var wire 1 1" decode_ready $end
    $scope module unnamedblk1 $end
     $var wire 4 2" avail [3:0] $end
     $var wire 8 3" q [7:0] $end
    $upscope $end
   $upscope $end
   $scope module unnamedblk3 $end
    $var wire 16 H# addr [15:0] $end
    $var wire 32 4" result32 [31:0] $end
    $var wire 16 5" temp [15:0] $end
    $var wire 16 I# src [15:0] $end
    $var wire 8 6" temp8 [7:0] $end
    $var wire 10 7" delay [9:0] $end
    $scope module unnamedblk12 $end
     $var wire 16 8" list [15:0] $end
     $var wire 32 9" pop_idx [31:0] $end
     $var wire 1 :" skip_sp $end
     $var wire 1 ;" mem_write $end
     $scope module unnamedblk13 $end
      $var wire 32 <" i [31:0] $end
     $upscope $end
    $upscope $end
    $scope module unnamedblk14 $end
     $var wire 16 =" push_data [15:0] $end
     $var wire 16 >" list [15:0] $end
     $var wire 32 ?" push_idx [31:0] $end
     $scope module unnamedblk15 $end
      $var wire 32 @" i [31:0] $end
     $upscope $end
    $upscope $end
    $scope module unnamedblk4 $end
     $var wire 1 A" working $end
     $var wire 1 B" exception $end
     $scope module unnamedblk10 $end
      $var wire 16 C" operand [15:0] $end
     $upscope $end
     $scope module unnamedblk11 $end
      $var wire 1 D" need_delay $end
     $upscope $end
     $scope module unnamedblk5 $end
      $var wire 1 E" do_work $end
     $upscope $end
     $scope module unnamedblk6 $end
      $var wire 1 F" do_work $end
     $upscope $end
     $scope module unnamedblk7 $end
      $var wire 1 G" do_work $end
     $upscope $end
     $scope module unnamedblk8 $end
      $var wire 1 H" do_work $end
     $upscope $end
     $scope module unnamedblk9 $end
      $var wire 1 I" do_work $end
     $upscope $end
    $upscope $end
   $upscope $end
  $upscope $end
  $var wire 1 J" clk $end
  $var wire 1 K" ce_1 $end
  $var wire 1 L" ce_2 $end
  $var wire 1 M" reset $end
  $var wire 1 N" hldrq $end
  $var wire 1 O" n_ready $end
  $var wire 1 P" bs16 $end
  $var wire 1 Q" hldak $end
  $var wire 1 R" n_buslock $end
  $var wire 1 S" n_ube $end
  $var wire 1 T" r_w $end
  $var wire 1 U" m_io $end
  $var wire 1 V" busst0 $end
  $var wire 1 W" busst1 $end
  $var wire 1 X" aex $end
  $var wire 1 Y" n_bcyst $end
  $var wire 1 Z" n_dstb $end
  $var wire 1 [" intreq $end
  $var wire 1 \" n_nmi $end
  $var wire 1 ]" n_cpbusy $end
  $var wire 1 ^" n_cperr $end
  $var wire 1 _" cpreq $end
  $var wire 24 `" addr [23:0] $end
  $var wire 16 a" dout [15:0] $end
  $var wire 16 b" din [15:0] $end
  $var wire 1 c" turbo $end
 $upscope $end
$enddefinitions $end


#18000
b0000000000000000 #
1$
b0000 %
0&
b0000000000000000 '
0(
0)
0*
1+
0,
0-
0.
0/
00
b000000000000000000000000 1
b0000000000000000 2
b0000000000000000 3
b0000000000000000 4
05
06
07
08
09
0:
0;
0<
0=
0>
b0000000000000000 ?
b0000000000000000 @
b00 A
0B
0C
0D
0E
0F
b00000000 G
b00000000 H
b00000000 I
b00000000 J
b00000000 K
b00000000 L
b00000000 M
b00000000 N
b0000000000000000 O
b0000000000000000 P
b000000 Q
b00 R
b000000 S
b0000 T
b0000 U
b0000 V
0W
0X
0Y
b000 Z
b0000000000000000 [
b00000000000000000000000000000000 \
0]
b00 ^
0_
b000 `
b00 a
b000 b
b000 c
b000 d
b00 e
b0000 f
b000 g
b00 h
b0000000000000000 i
b0000000000000000 j
b0000000000 k
b0000000000 l
b000000 m
b0000000000000000 n
b00000000 o
0p
b00000000 q
b0000000000000000 r
b0000000000000000 s
b000000 t
b00 u
b000000 v
b0000 w
b0000 x
b0000 y
0z
0{
0|
b000 }
b0000000000000000 ~
b00000000000000000000000000000000 !!
0"!
b00 #!
0$!
b000 %!
b00 &!
b000 '!
b000 (!
b000 )!
b00 *!
b0000 +!
b000 ,!
b00 -!
b0000000000000000 .!
b0000000000000000 /!
b0000000000 0!
b0000000000 1!
b000000 2!
b00000000000000000000000000000000 3!
04!
05!
16!
07!
18!
09!
0:!
0;!
0<!
0=!
0>!
0?!
b0000000000 @!
0A!
0B!
0C!
0D!
0E!
0F!
b000000000000000000000000000000000 G!
b000000000000000000000000000000000 I!
b0000000000000000 K!
b0000000000000000 L!
b0000000000000000 M!
b0000000000000000 N!
b0000 O!
b0000000000000000 P!
b0000000000000000 Q!
b0000000000000000 R!
b00000 S!
b0000000000000000 T!
b0000000 U!
b00000 V!
b00000 W!
b00000000 X!
b00000000 Y!
b00000 Z!
b00000 [!
0\!
0]!
b0000000000 ^!
b0000000000 _!
b0000000000 `!
1a!
1b!
1c!
b0000000000000000 d!
b00000000000000000 e!
b00000000000000000 f!
b000000000 g!
b00000000000000000000000000000000 h!
0i!
b000000000000000000 j!
b0000000000000000000000000000000000 k!
b000000 m!
b000000 n!
b0000000000000001 o!
0p!
b00000000000000000000 q!
b00 r!
b000 s!
0t!
0u!
0v!
b0000000000000000 w!
b0000000000000000 x!
0y!
b00000000000000000000000000000000 z!
b0000 {!
b0000000000000000 |!
0}!
0~!
b00000000000000000000000000000000 !"
b00000000000000000000000000000000 ""
b00000000000000000000000000000001 #"
b000000000000000000000000000000000 $"
b000000000000000000000000000000000 &"
b00000000000000000000000000000000 ("
0)"
0*"
b000000 +"
b00 ,"
b000 -"
b000 ."
b000 /"
00"
01"
b0000 2"
b00000000 3"
b00000000000000000000000000000000 4"
b0000000000000000 5"
b00000000 6"
b0000000000 7"
b0000000000000000 8"
b00000000000000000000000000000000 9"
0:"
0;"
b00000000000000000000000000000000 <"
b0000000000000000 ="
b0000000000000000 >"
b00000000000000000000000000000000 ?"
b00000000000000000000000000000000 @"
0A"
0B"
b0000000000000000 C"
0D"
0E"
0F"
0G"
0H"
0I"
0J"
0K"
1L"
1M"
0N"
0O"
0P"
0Q"
0R"
0S"
1T"
0U"
0V"
0W"
0X"
0Y"
0Z"
0["
0\"
0]"
0^"
0_"
b000000000000000000000000 `"
b0000000000000000 a"
b0000000000000000 b"
0c"
b0000000000000000 d"
b0000000000000000 e"
b0000000000000000 f"
b0000000000000000 g"
b0000000000000000 h"
b0000000000000000 i"
b0000000000000000 j"
b0000000000000000 k"
b0000000000000000 l"
b0000000000000000 m"
b0000000000000000 n"
b0000000000000000 o"
b0000000000000000 p"
0q"
b0111000000000010 r"
b0000000000000000 s"
0t"
b0000000000000000 u"
b0000000000000000 v"
b000000 w"
b00 x"
b000000 y"
b0000 z"
b0000 {"
b0000 |"
0}"
0~"
0!#
b000 "#
b0000000000000000 ##
b00000000000000000000000000000000 $#
0%#
b00 &#
0'#
b000 (#
b00 )#
b000 *#
b000 +#
b000 ,#
b00 -#
b0000 .#
b000 /#
b00 0#
b0000000000000000 1#
b0000000000000000 2#
b0000000000 3#
b0000000000 4#
05#
06#
b00000 7#
08#
19#
0:#
0;#
b0000000000000000 <#
b0000000000000000 =#
0>#
0?#
0@#
0A#
0B#
0C#
0D#
0E#
0F#
0G#
b0000000000000000 H#
b0000000000000000 I#
b0000000000000001 J#
b0000000000000010 K#
b0000000000000100 L#
b0000000000001000 M#
b0000000000010000 N#
b0000000000100000 O#
b0000000001000000 P#
b0000000010000000 Q#
b0000000100000000 R#
b0000001000000000 S#
b0000010000000000 T#
b0000100000000000 U#
b0001000000000000 V#
b0010000000000000 W#
b0100000000000000 X#
b1000000000000000 Y#
#36000
1,
1/
10
1;
1:!
b10 r!
b101 s!
b1111111111111111 w!
1J"
1K"
0L"
1U"
1Y"
1Z"
b1111111111111111 g"
b1111000000000010 r"
1t"
#54000
b0000101110100101 #
0J"
b0000101110100101 b"
#72000
b11 u
b100100 v
b11 #!
b11 &!
1J"
0K"
1L"
#90000
0J"
#108000
1J"
1K"
0L"
#126000
0J"
#144000
1J"
0K"
1L"
#162000
0J"
#180000
1J"
1K"
0L"
#198000
0J"
#216000
1J"
0K"
1L"
#234000
0J"
#252000
1J"
1K"
0L"
#270000
0J"
#288000
1J"
0K"
1L"
#306000
0J"
#324000
1J"
1K"
0L"
#342000
0J"
#360000
1J"
0K"
1L"
#378000
0J"
0M"
#396000
1y!
1J"
1K"
0L"
0t"
#414000
0J"
#432000
1)
0/
b000011111111111111110000 1
b11111111111111110000 q!
b00 r!
0y!
b00000000000000000000000000000001 z!
b0001 {!
1}!
1J"
0K"
1L"
1R"
0Y"
b000011111111111111110000 `"
#450000
b0000000011101010 #
0J"
b0000000011101010 b"
#468000
00
1J"
1K"
0L"
0Z"
#486000
0J"
#504000
1/
b01 r!
1J"
0K"
1L"
1Y"
#522000
0J"
#540000
b0010 %
b11101010 G
b10 r!
1u!
b0000000000000010 x!
1J"
1K"
0L"
#558000
0J"
#576000
0/
10
b000011111111111111110010 1
b11111111111111110010 q!
b00 r!
b00000000000000000000000000000010 z!
b0000000000000010 |!
b0010 2"
b11101010 3"
1J"
0K"
1L"
0Y"
1Z"
b000011111111111111110010 `"
#594000
b0000000000000100 #
0J"
b0000000000000100 b"
#612000
b0001 %
b0000000000000001 '
00
b0000000000000001 s
b001011 t
b10 u
b0010 w
b10 -!
b000001 +"
b100 /"
1J"
1K"
0L"
0Z"
b0000000000000001 p"
#630000
0J"
#648000
1/
b01 r!
b0001 2"
b00000000 3"
1J"
0K"
1L"
1Y"
#666000
0J"
#684000
b0010 %
b0000000000000010 '
b00000100 I
b0000000000000010 s
b10 r!
b0000000000000100 x!
b001 ."
10"
1J"
1K"
0L"
b0000000000000010 p"
#702000
0J"
#720000
0/
10
b000011111111111111110100 1
b11111111111111110100 q!
b00 r!
b00000000000000000000000000000011 z!
b0000000000000100 |!
b0010 2"
b00000100 3"
1J"
0K"
1L"
0Y"
1Z"
b000011111111111111110100 `"
#738000
b0000000000000000 #
0J"
b0000000000000000 b"
#756000
b0001 %
b0000000000000011 '
00
b0000000000000011 s
b00000000000000000000010000000000 !!
b010 ."
1J"
1K"
0L"
0Z"
b0000000000000011 p"
#774000
0J"
#792000
1/
b01 r!
b0001 2"
b00000000 3"
1J"
0K"
1L"
1Y"
#810000
0J"
#828000
b0010 %
b0000000000000100 '
b0000000000000100 s
b10 r!
b0000000000000110 x!
b011 ."
1J"
1K"
0L"
b0000000000000100 p"
#846000
0J"
#864000
0/
10
b000011111111111111110110 1
b11111111111111110110 q!
b00 r!
b00000000000000000000000000000100 z!
b0000000000000110 |!
b0010 2"
1J"
0K"
1L"
0Y"
1Z"
b000011111111111111110110 `"
#882000
0J"
#900000
b0001 %
1&
b0000000000000101 '
00
b0000000000000101 s
b100 ."
11"
1J"
1K"
0L"
0Z"
b0000000000000101 p"
16#
#918000
0J"
#936000
1/
b01 r!
b0001 2"
1J"
0K"
1L"
1Y"
#954000
0J"
