traces/sim/rol_1.vcd
$version Generated by VerilatedVcd $end
$timescale 1ps $end
 $scope module TOP $end
  $scope module types $end
   $var wire 16 I# STACK_AW [15:0] $end
   $var wire 16 J# STACK_CW [15:0] $end
   $var wire 16 K# STACK_DW [15:0] $end
   $var wire 16 L# STACK_BW [15:0] $end
   $var wire 16 M# STACK_SP [15:0] $end
   $var wire 16 N# STACK_BP_SKIP_SP [15:0] $end
   $var wire 16 O# STACK_BP [15:0] $end
   $var wire 16 P# STACK_IX [15:0] $end
   $var wire 16 Q# STACK_IY [15:0] $end
   $var wire 16 R# STACK_DS1 [15:0] $end
   $var wire 16 S# STACK_PSW [15:0] $end
   $var wire 16 T# STACK_PS [15:0] $end
   $var wire 16 U# STACK_SS [15:0] $end
   $var wire 16 V# STACK_DS0 [15:0] $end
   $var wire 16 W# STACK_PC [15:0] $end
   $var wire 16 X# STACK_OPERAND [15:0] $end
  $upscope $end
  $scope module V33 $end
   $var wire 1 H" clk $end
   $var wire 1 I" ce_1 $end
   $var wire 1 J" ce_2 $end
   $var wire 1 K" reset $end
   $var wire 1 L" hldrq $end
   $var wire 1 M" n_ready $end
   $var wire 1 N" bs16 $end
   $var wire 1 ( hldak $end
   $var wire 1 ) n_buslock $end
   $var wire 1 * n_ube $end
   $var wire 1 + r_w $end
   $var wire 1 , m_io $end
   $var wire 1 - busst0 $end
   $var wire 1 . busst1 $end
   $var wire 1 8# aex $end
   $var wire 1 / n_bcyst $end
   $var wire 1 0 n_dstb $end
   $var wire 1 Y" intreq $end
   $var wire 1 Z" n_nmi $end
   $var wire 1 [" n_cpbusy $end
   $var wire 1 \" n_cperr $end
   $var wire 1 ]" cpreq $end
   $var wire 24 1 addr [23:0] $end
   $var wire 16 2 dout [15:0] $end
   $var wire 16 `" din [15:0] $end
   $var wire 1 a" turbo $end
   $var wire 16 b" reg_ds0 [15:0] $end
   $var wire 16 c" reg_ds1 [15:0] $end
   $var wire 16 d" reg_ss [15:0] $end
   $var wire 16 e" reg_ps [15:0] $end
   $var wire 16 f" reg_aw [15:0] $end
   $var wire 16 g" reg_bw [15:0] $end
   $var wire 16 h" reg_cw [15:0] $end
   $var wire 16 i" reg_dw [15:0] $end
   $var wire 16 j" reg_sp [15:0] $end
   $var wire 16 k" reg_bp [15:0] $end
   $var wire 16 l" reg_ix [15:0] $end
   $var wire 16 m" reg_iy [15:0] $end
   $var wire 16 n" cur_pc [15:0] $end
   $var wire 16 3 TA [15:0] $end
   $var wire 16 4 TB [15:0] $end
   $var wire 1 o" halt $end
   $scope module flags $end
    $var wire 1 5 V $end
    $var wire 1 6 S $end
    $var wire 1 7 Z $end
    $var wire 1 8 AC $end
    $var wire 1 9 P $end
    $var wire 1 : CY $end
    $var wire 1 ; MD $end
    $var wire 1 < DIR $end
    $var wire 1 = IE $end
    $var wire 1 > BRK $end
   $upscope $end
   $var wire 16 p" reg_psw [15:0] $end
   $var wire 16 ? dp_addr [15:0] $end
   $var wire 16 @ dp_dout [15:0] $end
   $var wire 16 # dp_din [15:0] $end
   $var wire 2 A dp_sreg [1:0] $end
   $var wire 1 B dp_zero_seg $end
   $var wire 1 C dp_write $end
   $var wire 1 D dp_wide $end
   $var wire 1 E dp_io $end
   $var wire 1 F dp_req $end
   $var wire 1 $ dp_ready $end
   $var wire 16 q" next_pc [15:0] $end
   $var wire 1 r" set_pc $end
   $var wire 8 G ipq[0] [7:0] $end
   $var wire 8 H ipq[1] [7:0] $end
   $var wire 8 I ipq[2] [7:0] $end
   $var wire 8 J ipq[3] [7:0] $end
   $var wire 8 K ipq[4] [7:0] $end
   $var wire 8 L ipq[5] [7:0] $end
   $var wire 8 M ipq[6] [7:0] $end
   $var wire 8 N ipq[7] [7:0] $end
   $var wire 4 % ipq_len [3:0] $end
   $scope module store_decoded $end
    $var wire 16 O pc [15:0] $end
    $var wire 16 P end_pc [15:0] $end
    $var wire 6 Q opcode [5:0] $end
    $var wire 2 R opclass [1:0] $end
    $var wire 6 S alu_operation [5:0] $end
    $var wire 4 T source0 [3:0] $end
    $var wire 4 U source1 [3:0] $end
    $var wire 4 V dest [3:0] $end
    $var wire 1 W mem_read $end
    $var wire 1 X mem_write $end
    $var wire 1 Y io $end
    $var wire 3 Z disp_size [2:0] $end
    $var wire 16 [ disp [15:0] $end
    $var wire 32 \ imm [31:0] $end
    $var wire 1 ] segment_override $end
    $var wire 2 ^ segment [1:0] $end
    $var wire 1 _ buslock $end
    $var wire 3 ` rep [2:0] $end
    $var wire 2 a mod [1:0] $end
    $var wire 3 b rm [2:0] $end
    $var wire 3 c reg0 [2:0] $end
    $var wire 3 d reg1 [2:0] $end
    $var wire 2 e sreg [1:0] $end
    $var wire 4 f cond [3:0] $end
    $var wire 3 g shift [2:0] $end
    $var wire 2 h width [1:0] $end
    $var wire 16 i push [15:0] $end
    $var wire 16 j pop [15:0] $end
    $var wire 10 k cycles [9:0] $end
    $var wire 10 l mem_cycles [9:0] $end
   $upscope $end
   $scope module decoded $end
    $var wire 16 s" pc [15:0] $end
    $var wire 16 t" end_pc [15:0] $end
    $var wire 6 u" opcode [5:0] $end
    $var wire 2 v" opclass [1:0] $end
    $var wire 6 w" alu_operation [5:0] $end
    $var wire 4 x" source0 [3:0] $end
    $var wire 4 y" source1 [3:0] $end
    $var wire 4 z" dest [3:0] $end
    $var wire 1 {" mem_read $end
    $var wire 1 |" mem_write $end
    $var wire 1 }" io $end
    $var wire 3 ~" disp_size [2:0] $end
    $var wire 16 !# disp [15:0] $end
    $var wire 32 "# imm [31:0] $end
    $var wire 1 ## segment_override $end
    $var wire 2 $# segment [1:0] $end
    $var wire 1 %# buslock $end
    $var wire 3 &# rep [2:0] $end
    $var wire 2 '# mod [1:0] $end
    $var wire 3 (# rm [2:0] $end
    $var wire 3 )# reg0 [2:0] $end
    $var wire 3 *# reg1 [2:0] $end
    $var wire 2 +# sreg [1:0] $end
    $var wire 4 ,# cond [3:0] $end
    $var wire 3 -# shift [2:0] $end
    $var wire 2 .# width [1:0] $end
    $var wire 16 /# push [15:0] $end
    $var wire 16 0# pop [15:0] $end
    $var wire 10 1# cycles [9:0] $end
    $var wire 10 2# mem_cycles [9:0] $end
   $upscope $end
   $var wire 6 m cur_opcode [5:0] $end
   $var wire 16 n calc_ea__Vstatic__addr [15:0] $end
   $var wire 8 o interrupt_vector [7:0] $end
   $var wire 1 3# bcu_intreq $end
   $var wire 1 p bcu_intack $end
   $var wire 8 q bcu_intvec [7:0] $end
   $var wire 1 9# block_prefetch $end
   $var wire 1 4# retire_op $end
   $var wire 1 & next_decode_valid $end
   $scope module next_decode $end
    $var wire 16 r pc [15:0] $end
    $var wire 16 s end_pc [15:0] $end
    $var wire 6 t opcode [5:0] $end
    $var wire 2 u opclass [1:0] $end
    $var wire 6 v alu_operation [5:0] $end
    $var wire 4 w source0 [3:0] $end
    $var wire 4 x source1 [3:0] $end
    $var wire 4 y dest [3:0] $end
    $var wire 1 z mem_read $end
    $var wire 1 { mem_write $end
    $var wire 1 | io $end
    $var wire 3 } disp_size [2:0] $end
    $var wire 16 ~ disp [15:0] $end
    $var wire 32 !! imm [31:0] $end
    $var wire 1 "! segment_override $end
    $var wire 2 #! segment [1:0] $end
    $var wire 1 $! buslock $end
    $var wire 3 %! rep [2:0] $end
    $var wire 2 &! mod [1:0] $end
    $var wire 3 '! rm [2:0] $end
    $var wire 3 (! reg0 [2:0] $end
    $var wire 3 )! reg1 [2:0] $end
    $var wire 2 *! sreg [1:0] $end
    $var wire 4 +! cond [3:0] $end
    $var wire 3 ,! shift [2:0] $end
    $var wire 2 -! width [1:0] $end
    $var wire 16 .! push [15:0] $end
    $var wire 16 /! pop [15:0] $end
    $var wire 10 0! cycles [9:0] $end
    $var wire 10 1! mem_cycles [9:0] $end
   $upscope $end
   $var wire 6 2! alu_operation [5:0] $end
   $var wire 32 3! alu_result [31:0] $end
   $scope module alu_flags_result $end
    $var wire 1 4! V $end
    $var wire 1 5! S $end
    $var wire 1 6! Z $end
    $var wire 1 7! AC $end
    $var wire 1 8! P $end
    $var wire 1 9! CY $end
    $var wire 1 :! MD $end
    $var wire 1 ;! DIR $end
    $var wire 1 <! IE $end
    $var wire 1 =! BRK $end
   $upscope $end
   $var wire 1 >! use_alu_result $end
   $var wire 1 ?! alu_wide $end
   $var wire 10 @! alu_cycles [9:0] $end
   $var wire 1 A! div_start $end
   $var wire 1 B! div_wide $end
   $var wire 1 C! div_signed $end
   $var wire 1 D! div_done $end
   $var wire 1 E! div_overflow $end
   $var wire 1 F! div_dbz $end
   $var wire 33 G! div_num [32:0] $end
   $var wire 33 I! div_denom [32:0] $end
   $var wire 16 K! div_quot [15:0] $end
   $var wire 16 L! div_rem [15:0] $end
   $var wire 5 5# state [4:0] $end
   $var wire 16 M! calculated_ea [15:0] $end
   $var wire 16 N! op_result [15:0] $end
   $var wire 16 :# branch_new_pc [15:0] $end
   $var wire 16 ;# branch_new_ps [15:0] $end
   $var wire 4 O! exec_stage [3:0] $end
   $var wire 16 P! push_list [15:0] $end
   $var wire 16 Q! pop_list [15:0] $end
   $var wire 16 R! push_sp_save [15:0] $end
   $var wire 5 S! prepare_nesting_level [4:0] $end
   $var wire 16 T! prepare_sp_save [15:0] $end
   $var wire 7 U! bcd_offset [6:0] $end
   $var wire 5 V! bcd_acc_high [4:0] $end
   $var wire 5 W! bcd_acc_low [4:0] $end
   $var wire 8 X! bcd_acc [7:0] $end
   $var wire 8 Y! bcd_src [7:0] $end
   $var wire 5 Z! bcd_result_high [4:0] $end
   $var wire 5 [! bcd_result_low [4:0] $end
   $var wire 1 \! stack_modified_pc $end
   $var wire 1 ]! stack_modified_ps $end
   $var wire 10 ^! cycles [9:0] $end
   $var wire 10 _! op_cycles [9:0] $end
   $scope module ALU $end
    $var wire 1 H" clk $end
    $var wire 6 2! operation [5:0] $end
    $var wire 16 3 ta [15:0] $end
    $var wire 16 4 tb [15:0] $end
    $var wire 1 ?! wide $end
    $var wire 32 3! result [31:0] $end
    $var wire 10 @! alu_cycles [9:0] $end
    $scope module flags_in $end
     $var wire 1 5 V $end
     $var wire 1 6 S $end
     $var wire 1 7 Z $end
     $var wire 1 8 AC $end
     $var wire 1 9 P $end
     $var wire 1 : CY $end
     $var wire 1 ; MD $end
     $var wire 1 < DIR $end
     $var wire 1 = IE $end
     $var wire 1 > BRK $end
    $upscope $end
    $scope module flags $end
     $var wire 1 4! V $end
     $var wire 1 5! S $end
     $var wire 1 6! Z $end
     $var wire 1 7! AC $end
     $var wire 1 8! P $end
     $var wire 1 9! CY $end
     $var wire 1 :! MD $end
     $var wire 1 ;! DIR $end
     $var wire 1 <! IE $end
     $var wire 1 =! BRK $end
    $upscope $end
    $scope module unnamedblk1 $end
     $var wire 1 `! calc_parity $end
     $var wire 1 a! calc_sign $end
     $var wire 1 b! calc_zero $end
     $scope module fcalc $end
      $var wire 1 <# V $end
      $var wire 1 =# S $end
      $var wire 1 ># Z $end
      $var wire 1 ?# AC $end
      $var wire 1 @# P $end
      $var wire 1 A# CY $end
      $var wire 1 B# MD $end
      $var wire 1 C# DIR $end
      $var wire 1 D# IE $end
      $var wire 1 E# BRK $end
     $upscope $end
     $var wire 16 c! res [15:0] $end
     $var wire 17 d! temp17 [16:0] $end
     $var wire 17 e! temp17_2 [16:0] $end
     $var wire 9 f! temp9 [8:0] $end
     $var wire 32 g! result32 [31:0] $end
     $var wire 1 h! use_result32 $end
     $var wire 18 i! sh18 [17:0] $end
     $var wire 34 j! sh34 [33:0] $end
     $var wire 6 l! sz [5:0] $end
     $var wire 6 m! sz_inv [5:0] $end
     $var wire 16 n! bit_shift_mask [15:0] $end
    $upscope $end
   $upscope $end
   $scope module BCU $end
    $var wire 1 H" clk $end
    $var wire 1 I" ce_1 $end
    $var wire 1 J" ce_2 $end
    $var wire 1 K" reset $end
    $var wire 1 L" hldrq $end
    $var wire 1 M" n_ready $end
    $var wire 1 N" bs16 $end
    $var wire 1 ( hldak $end
    $var wire 1 ) n_buslock $end
    $var wire 1 * n_ube $end
    $var wire 1 + r_w $end
    $var wire 1 , m_io $end
    $var wire 1 - busst0 $end
    $var wire 1 . busst1 $end
    $var wire 1 8# aex $end
    $var wire 1 / n_bcyst $end
    $var wire 1 0 n_dstb $end
    $var wire 24 1 addr [23:0] $end
    $var wire 16 2 dout [15:0] $end
    $var wire 16 `" din [15:0] $end
    $var wire 16 e" reg_ps [15:0] $end
    $var wire 16 d" reg_ss [15:0] $end
    $var wire 16 b" reg_ds0 [15:0] $end
    $var wire 16 c" reg_ds1 [15:0] $end
    $var wire 1 r" pfp_set $end
    $var wire 1 9# block_prefetch $end
    $var wire 16 ' ipq_head [15:0] $end
    $var wire 8 G ipq[0] [7:0] $end
    $var wire 8 H ipq[1] [7:0] $end
    $var wire 8 I ipq[2] [7:0] $end
    $var wire 8 J ipq[3] [7:0] $end
    $var wire 8 K ipq[4] [7:0] $end
    $var wire 8 L ipq[5] [7:0] $end
    $var wire 8 M ipq[6] [7:0] $end
    $var wire 8 N ipq[7] [7:0] $end
    $var wire 4 % ipq_len [3:0] $end
    $var wire 16 ? dp_addr [15:0] $end
    $var wire 16 @ dp_dout [15:0] $end
    $var wire 16 # dp_din [15:0] $end
    $var wire 2 A dp_sreg [1:0] $end
    $var wire 1 C dp_write $end
    $var wire 1 D dp_wide $end
    $var wire 1 E dp_io $end
    $var wire 1 F dp_req $end
    $var wire 1 B dp_zero_seg $end
    $var wire 1 $ dp_ready $end
    $var wire 1 %# buslock_prefix $end
    $var wire 1 o! implementation_fault $end
    $var wire 1 3# intreq $end
    $var wire 1 p intack $end
    $var wire 8 q intvec [7:0] $end
    $var wire 20 p! physical_addr__Vstatic__addr [19:0] $end
    $var wire 2 q! t_state [1:0] $end
    $var wire 3 r! cycle_type [2:0] $end
    $var wire 1 s! dp_busy $end
    $var wire 1 t! dp_final_cycle $end
    $var wire 1 u! dp_req2 $end
    $var wire 16 v! dp_din_buf [15:0] $end
    $var wire 16 w! reg_pfp [15:0] $end
    $var wire 1 x! discard_ipq_fetch $end
    $var wire 1 6# dp_bus_ready $end
    $var wire 32 y! intack_idles [31:0] $end
    $var wire 4 z! prefetch_delay [3:0] $end
    $scope module unnamedblk1 $end
     $var wire 16 {! cur_pfp [15:0] $end
     $scope module unnamedblk2 $end
      $var wire 1 |! do_prefetch $end
     $upscope $end
    $upscope $end
   $upscope $end
   $scope module divider $end
    $var wire 1 H" clk $end
    $var wire 1 7# ce $end
    $var wire 1 K" reset $end
    $var wire 1 A! start $end
    $var wire 1 B! wide $end
    $var wire 1 D! done $end
    $var wire 1 E! overflow $end
    $var wire 1 F! dbz $end
    $var wire 33 G! a [32:0] $end
    $var wire 33 I! b [32:0] $end
    $var wire 16 K! quot [15:0] $end
    $var wire 16 L! rem [15:0] $end
    $var wire 1 }! busy $end
    $var wire 32 ~! b1 [31:0] $end
    $var wire 32 !" quo [31:0] $end
    $var wire 32 "" quo_next [31:0] $end
    $var wire 33 #" acc [32:0] $end
    $var wire 33 %" acc_next [32:0] $end
    $var wire 32 '" i [31:0] $end
   $upscope $end
   $scope module handle_branch__Vstatic__unnamedblk1 $end
    $var wire 1 (" cond $end
   $upscope $end
   $scope module handle_branch__Vstatic__unnamedblk2 $end
    $var wire 1 )" cond $end
   $upscope $end
   $scope module nec_decode $end
    $var wire 1 H" clk $end
    $var wire 1 I" ce_1 $end
    $var wire 1 J" ce_2 $end
    $var wire 16 n" pc [15:0] $end
    $var wire 16 q" new_pc [15:0] $end
    $var wire 1 r" set_pc $end
    $var wire 1 4# retire_op $end
    $var wire 4 % ipq_len [3:0] $end
    $var wire 8 G ipq[0] [7:0] $end
    $var wire 8 H ipq[1] [7:0] $end
    $var wire 8 I ipq[2] [7:0] $end
    $var wire 8 J ipq[3] [7:0] $end
    $var wire 8 K ipq[4] [7:0] $end
    $var wire 8 L ipq[5] [7:0] $end
    $var wire 8 M ipq[6] [7:0] $end
    $var wire 8 N ipq[7] [7:0] $end
    $var wire 1 & valid $end
    $var wire 1 9# block_prefetch $end
    $scope module decoded $end
     $var wire 16 r pc [15:0] $end
     $var wire 16 s end_pc [15:0] $end
     $var wire 6 t opcode [5:0] $end
     $var wire 2 u opclass [1:0] $end
     $var wire 6 v alu_operation [5:0] $end
     $var wire 4 w source0 [3:0] $end
     $var wire 4 x source1 [3:0] $end
     $var wire 4 y dest [3:0] $end
     $var wire 1 z mem_read $end
     $var wire 1 { mem_write $end
     $var wire 1 | io $end
     $var wire 3 } disp_size [2:0] $end
     $var wire 16 ~ disp [15:0] $end
     $var wire 32 !! imm [31:0] $end
     $var wire 1 "! segment_override $end
     $var wire 2 #! segment [1:0] $end
     $var wire 1 $! buslock $end
     $var wire 3 %! rep [2:0] $end
     $var wire 2 &! mod [1:0] $end
     $var wire 3 '! rm [2:0] $end
     $var wire 3 (! reg0 [2:0] $end
     $var wire 3 )! reg1 [2:0] $end
     $var wire 2 *! sreg [1:0] $end
     $var wire 4 +! cond [3:0] $end
     $var wire 3 ,! shift [2:0] $end
     $var wire 2 -! width [1:0] $end
     $var wire 16 .! push [15:0] $end
     $var wire 16 /! pop [15:0] $end
     $var wire 10 0! cycles [9:0] $end
     $var wire 10 1! mem_cycles [9:0] $end
    $upscope $end
    $var wire 6 *" state [5:0] $end
    $scope module d $end
     $var wire 16 r pc [15:0] $end
     $var wire 16 s end_pc [15:0] $end
     $var wire 6 t opcode [5:0] $end
     $var wire 2 u opclass [1:0] $end
     $var wire 6 v alu_operation [5:0] $end
     $var wire 4 w source0 [3:0] $end
     $var wire 4 x source1 [3:0] $end
     $var wire 4 y dest [3:0] $end
     $var wire 1 z mem_read $end
     $var wire 1 { mem_write $end
     $var wire 1 | io $end
     $var wire 3 } disp_size [2:0] $end
     $var wire 16 ~ disp [15:0] $end
     $var wire 32 !! imm [31:0] $end
     $var wire 1 "! segment_override $end
     $var wire 2 #! segment [1:0] $end
     $var wire 1 $! buslock $end
     $var wire 3 %! rep [2:0] $end
     $var wire 2 &! mod [1:0] $end
     $var wire 3 '! rm [2:0] $end
     $var wire 3 (! reg0 [2:0] $end
     $var wire 3 )! reg1 [2:0] $end
     $var wire 2 *! sreg [1:0] $end
     $var wire 4 +! cond [3:0] $end
     $var wire 3 ,! shift [2:0] $end
     $var wire 2 -! width [1:0] $end
     $var wire 16 .! push [15:0] $end
     $var wire 16 /! pop [15:0] $end
     $var wire 10 0! cycles [9:0] $end
     $var wire 10 1! mem_cycles [9:0] $end
    $upscope $end
    $var wire 2 F# calc_seg__Vstatic__seg [1:0] $end
    $var wire 3 +" disp_read [2:0] $end
    $var wire 3 ," imm_read [2:0] $end
    $var wire 3 -" imm_size [2:0] $end
    $var wire 1 ." decode_valid $end
    $var wire 1 /" decode_ready $end
    $scope module unnamedblk1 $end
     $var wire 4 0" avail [3:0] $end
     $var wire 8 1" q [7:0] $end
    $upscope $end
   $upscope $end
   $scope module unnamedblk3 $end
    $var wire 16 G# addr [15:0] $end
    $var wire 32 2" result32 [31:0] $end
    $var wire 16 3" temp [15:0] $end
    $var wire 16 H# src [15:0] $end
    $var wire 8 4" temp8 [7:0] $end
    $var wire 10 5" delay [9:0] $end
    $scope module unnamedblk12 $end
     $var wire 16 6" list [15:0] $end
     $var wire 32 7" pop_idx [31:0] $end
     $var wire 1 8" skip_sp $end
     $var wire 1 9" mem_write $end
     $scope module unnamedblk13 $end
      $var wire 32 :" i [31:0] $end
     $upscope $end
    $upscope $end
    $scope module unnamedblk14 $end
     $var wire 16 ;" push_data [15:0] $end
     $var wire 16 <" list [15:0] $end
     $var wire 32 =" push_idx [31:0] $end
     $scope module unnamedblk15 $end
      $var wire 32 >" i [31:0] $end
     $upscope $end
    $upscope $end
    $scope module unnamedblk4 $end
     $var wire 1 ?" working $end
     $var wire 1 @" exception $end
     $scope module unnamedblk10 $end
      $var wire 16 A" operand [15:0] $end
     $upscope $end
     $scope module unnamedblk11 $end
      $var wire 1 B" need_delay $end
     $upscope $end
     $scope module unnamedblk5 $end
      $var wire 1 C" do_work $end
     $upscope $end
     $scope module unnamedblk6 $end
      $var wire 1 D" do_work $end
     $upscope $end
     $scope module unnamedblk7 $end
      $var wire 1 E" do_work $end
     $upscope $end
     $scope module unnamedblk8 $end
      $var wire 1 F" do_work $end
     $upscope $end
     $scope module unnamedblk9 $end
      $var wire 1 G" do_work $end
     $upscope $end
    $upscope $end
   $upscope $end
  $upscope $end
  $var wire 1 H" clk $end
  $var wire 1 I" ce_1 $end
  $var wire 1 J" ce_2 $end
  $var wire 1 K" reset $end
  $var wire 1 L" hldrq $end
  $var wire 1 M" n_ready $end
  $var wire 1 N" bs16 $end
  $var wire 1 O" hldak $end
  $var wire 1 P" n_buslock $end
  $var wire 1 Q" n_ube $end
  $var wire 1 R" r_w $end
  $var wire 1 S" m_io $end
  $var wire 1 T" busst0 $end
  $var wire 1 U" busst1 $end
  $var wire 1 V" aex $end
  $var wire 1 W" n_bcyst $end
  $var wire 1 X" n_dstb $end
  $var wire 1 Y" intreq $end
  $var wire 1 Z" n_nmi $end
  $var wire 1 [" n_cpbusy $end
  $var wire 1 \" n_cperr $end
  $var wire 1 ]" cpreq $end
  $var wire 24 ^" addr [23:0] $end
  $var wire 16 _" dout [15:0] $end
  $var wire 16 `" din [15:0] $end
  $var wire 1 a" turbo $end
 $upscope $end
$enddefinitions $end


#18000
b0000000000000000 #
1$
b0000 %
0&
b0000000000000000 '
0(
0)
0*
1+
0,
0-
0.
0/
00
b000000000000000000000000 1
b0000000000000000 2
b0000000000000000 3
b0000000000000000 4
05
06
07
08
09
0:
0;
0<
0=
0>
b0000000000000000 ?
b0000000000000000 @
b00 A
0B
0C
0D
0E
0F
b00000000 G
b00000000 H
b00000000 I
b00000000 J
b00000000 K
b00000000 L
b00000000 M
b00000000 N
b0000000000000000 O
b0000000000000000 P
b000000 Q
b00 R
b000000 S
b0000 T
b0000 U
b0000 V
0W
0X
0Y
b000 Z
b0000000000000000 [
b00000000000000000000000000000000 \
0]
b00 ^
0_
b000 `
b00 a
b000 b
b000 c
b000 d
b00 e
b0000 f
b000 g
b00 h
b0000000000000000 i
b0000000000000000 j
b0000000000 k
b0000000000 l
b000000 m
b0000000000000000 n
b00000000 o
0p
b00000000 q
b0000000000000000 r
b0000000000000000 s
b000000 t
b00 u
b000000 v
b0000 w
b0000 x
b0000 y
0z
0{
0|
b000 }
b0000000000000000 ~
b00000000000000000000000000000000 !!
0"!
b00 #!
0$!
b000 %!
b00 &!
b000 '!
b000 (!
b000 )!
b00 *!
b0000 +!
b000 ,!
b00 -!
b0000000000000000 .!
b0000000000000000 /!
b0000000000 0!
b0000000000 1!
b000000 2!
b00000000000000000000000000000000 3!
04!
05!
16!
07!
18!
09!
0:!
0;!
0<!
0=!
0>!
0?!
b0000000000 @!
0A!
0B!
0C!
0D!
0E!
0F!
b000000000000000000000000000000000 G!
b000000000000000000000000000000000 I!
b0000000000000000 K!
b0000000000000000 L!
b0000000000000000 M!
b0000000000000000 N!
b0000 O!
b0000000000000000 P!
b0000000000000000 Q!
b0000000000000000 R!
b00000 S!
b0000000000000000 T!
b0000000 U!
b00000 V!
b00000 W!
b00000000 X!
b00000000 Y!
b00000 Z!
b00000 [!
0\!
0]!
b0000000000 ^!
b0000000000 _!
1`!
1a!
1b!
b0000000000000000 c!
b00000000000000000 d!
b00000000000000000 e!
b000000000 f!
b00000000000000000000000000000000 g!
0h!
b000000000000000000 i!
b0000000000000000000000000000000000 j!
b000000 l!
b000000 m!
b0000000000000001 n!
0o!
b00000000000000000000 p!
b00 q!
b000 r!
0s!
0t!
0u!
b0000000000000000 v!
b0000000000000000 w!
0x!
b00000000000000000000000000000000 y!
b0000 z!
b0000000000000000 {!
0|!
0}!
b00000000000000000000000000000000 ~!
b00000000000000000000000000000000 !"
b00000000000000000000000000000001 ""
b000000000000000000000000000000000 #"
b000000000000000000000000000000000 %"
b00000000000000000000000000000000 '"
0("
0)"
b000000 *"
b000 +"
b000 ,"
b000 -"
0."
0/"
b0000 0"
b00000000 1"
b00000000000000000000000000000000 2"
b0000000000000000 3"
b00000000 4"
b0000000000 5"
b0000000000000000 6"
b00000000000000000000000000000000 7"
08"
09"
b00000000000000000000000000000000 :"
b0000000000000000 ;"
b0000000000000000 <"
b00000000000000000000000000000000 ="
b00000000000000000000000000000000 >"
0?"
0@"
b0000000000000000 A"
0B"
0C"
0D"
0E"
0F"
0G"
0H"
0I"
1J"
1K"
0L"
0M"
0N"
0O"
0P"
0Q"
1R"
0S"
0T"
0U"
0V"
0W"
0X"
0Y"
0Z"
0["
0\"
0]"
b000000000000000000000000 ^"
b0000000000000000 _"
b0000000000000000 `"
0a"
b0000000000000000 b"
b0000000000000000 c"
b0000000000000000 d"
b0000000000000000 e"
b0000000000000000 f"
b0000000000000000 g"
b0000000000000000 h"
b0000000000000000 i"
b0000000000000000 j"
b0000000000000000 k"
b0000000000000000 l"
b0000000000000000 m"
b0000000000000000 n"
0o"
b0111000000000010 p"
b0000000000000000 q"
0r"
b0000000000000000 s"
b0000000000000000 t"
b000000 u"
b00 v"
b000000 w"
b0000 x"
b0000 y"
b0000 z"
0{"
0|"
0}"
b000 ~"
b0000000000000000 !#
b00000000000000000000000000000000 "#
0##
b00 $#
0%#
b000 &#
b00 '#
b000 (#
b000 )#
b000 *#
b00 +#
b0000 ,#
b000 -#
b00 .#
b0000000000000000 /#
b0000000000000000 0#
b0000000000 1#
b0000000000 2#
03#
04#
b00000 5#
06#
17#
08#
09#
b0000000000000000 :#
b0000000000000000 ;#
0<#
0=#
0>#
0?#
0@#
0A#
0B#
0C#
0D#
0E#
b00 F#
b0000000000000000 G#
b0000000000000000 H#
b0000000000000001 I#
b0000000000000010 J#
b0000000000000100 K#
b0000000000001000 L#
b0000000000010000 M#
b0000000000100000 N#
b0000000001000000 O#
b0000000010000000 P#
b0000000100000000 Q#
b0000001000000000 R#
b0000010000000000 S#
b0000100000000000 T#
b0001000000000000 U#
b0010000000000000 V#
b0100000000000000 W#
b1000000000000000 X#
#36000
1,
1/
10
1;
1:!
b10 q!
b101 r!
b1111111111111111 v!
1H"
1I"
0J"
1S"
1W"
1X"
b1111111111111111 e"
b1111000000000010 p"
1r"
#54000
b0000101110100101 #
0H"
b0000101110100101 `"
#72000
b11 u
b100100 v
b11 #!
b11 &!
1H"
0I"
1J"
#90000
0H"
#108000
1H"
1I"
0J"
#126000
0H"
#144000
1H"
0I"
1J"
#162000
0H"
#180000
1H"
1I"
0J"
#198000
0H"
#216000
1H"
0I"
1J"
#234000
0H"
#252000
1H"
1I"
0J"
#270000
0H"
#288000
1H"
0I"
1J"
#306000
0H"
#324000
1H"
1I"
0J"
#342000
0H"
#360000
1H"
0I"
1J"
#378000
0H"
0K"
#396000
1x!
1H"
1I"
0J"
0r"
#414000
0H"
#432000
1)
0/
b000011111111111111110000 1
b11111111111111110000 p!
b00 q!
0x!
b00000000000000000000000000000001 y!
b0001 z!
1|!
1H"
0I"
1J"
1P"
0W"
b000011111111111111110000 ^"
#450000
b0000000011101010 #
0H"
b0000000011101010 `"
#468000
00
1H"
1I"
0J"
0X"
#486000
0H"
#504000
1/
b01 q!
1H"
0I"
1J"
1W"
#522000
0H"
#540000
b0010 %
b11101010 G
b10 q!
1t!
b0000000000000010 w!
1H"
1I"
0J"
#558000
0H"
#576000
0/
10
b000011111111111111110010 1
b11111111111111110010 p!
b00 q!
b00000000000000000000000000000010 y!
b0000000000000010 {!
b0010 0"
b11101010 1"
1H"
0I"
1J"
0W"
1X"
b000011111111111111110010 ^"
#594000
b0000000000000100 #
0H"
b0000000000000100 `"
#612000
b0001 %
b0000000000000001 '
00
b0000000000000001 s
b001011 t
b10 u
b0010 w
b10 -!
b000001 *"
b100 -"
1H"
1I"
0J"
0X"
b0000000000000001 n"
#630000
0H"
#648000
1/
b01 q!
b0001 0"
b00000000 1"
1H"
0I"
1J"
1W"
#666000
0H"
#684000
b0011 %
b00000100 I
b10 q!
b0000000000000100 w!
1."
1H"
1I"
0J"
#702000
0H"
#720000
0/
10
b000011111111111111110100 1
b11111111111111110100 p!
b00 q!
b00000000000000000000000000000011 y!
b0000000000000100 {!
b0011 0"
1H"
0I"
1J"
0W"
1X"
b000011111111111111110100 ^"
#738000
b0000000000000000 #
0H"
b0000000000000000 `"
#756000
00
1H"
1I"
0J"
0X"
#774000
0H"
#792000
1/
b01 q!
1H"
0I"
1J"
1W"
#810000
0H"
#828000
b0101 %
b10 q!
b0000000000000110 w!
1H"
1I"
0J"
#846000
0H"
#864000
0/
10
b000011111111111111110110 1
b11111111111111110110 p!
b00 q!
b00000000000000000000000000000100 y!
b0000000000000110 {!
b0101 0"
1H"
0I"
1J"
0W"
1X"
b000011111111111111110110 ^"
#882000
0H"
#900000
b0001 %
1&
b0000000000000101 '
00
b0000000000000101 s
b0000010000000000 ~
b00000000000000000000010000000000 !!
b100 ,"
1/"
1H"
1I"
0J"
0X"
b0000000000000101 n"
14#
#918000
0H"
#936000
1/
b01 q!
b0001 0"
1H"
0I"
1J"
1W"
#954000
0H"
